[2020-01-12 19:51:41,040] INFO in card.py: GET: /card?
[2020-01-12 19:51:41,069] DEBUG in card.py: Response from cards: {'message': 'Service CARD is not available'}, 503
[2020-01-12 19:52:16,827] INFO in user.py: GET: /user?
[2020-01-12 19:53:38,243] INFO in user.py: GET: /user?
[2020-01-12 19:54:03,149] INFO in user.py: GET: /user/1?
[2020-01-12 19:54:14,336] INFO in card.py: GET: /card/1?
[2020-01-12 19:54:14,344] DEBUG in card.py: Response from cards: {'message': 'Service CARD is not available'}, 503
[2020-01-12 19:56:51,218] INFO in card.py: GET: /card/1?
[2020-01-12 19:56:51,252] DEBUG in card.py: Response from cards: {'message': 'Service CARD is not available'}, 503
[2020-01-12 19:57:02,853] INFO in card.py: GET: /card?
[2020-01-12 19:57:02,863] DEBUG in card.py: Response from cards: {'message': 'Service CARD is not available'}, 503
[2020-01-12 19:57:16,991] INFO in user.py: GET: /user?
[2020-01-12 20:02:42,013] INFO in user.py: GET: /user?
[2020-01-12 20:05:23,939] INFO in user.py: GET: /user?
[2020-01-12 20:05:23,975] DEBUG in user_connector.py: Response from user connector: {'users': [{'id': 1, 'username': 'Kizilov D.'}, {'id': 2, 'username': 'Michael Bale'}, {'id': 3, 'username': 'Rock'}, {'id': 4, 'username': 'Paper'}, {'id': 5, 'username': 'Scissors'}]}, 200
[2020-01-12 20:05:23,976] DEBUG in user.py: Response from servers: {'users': [{'id': 1, 'username': 'Kizilov D.'}, {'id': 2, 'username': 'Michael Bale'}, {'id': 3, 'username': 'Rock'}, {'id': 4, 'username': 'Paper'}, {'id': 5, 'username': 'Scissors'}]}, 200
[2020-01-12 20:05:42,856] INFO in user.py: GET: /user?
[2020-01-12 20:05:42,867] DEBUG in user_connector.py: Response from user connector: {'message': 'Service USER is not available'}, 503
[2020-01-12 20:05:42,868] DEBUG in user.py: Response from servers: {'message': 'Service USER is not available'}, 503
[2020-01-12 20:08:08,402] INFO in card_user.py: GET: /card/3/user?
[2020-01-12 20:08:08,456] DEBUG in order_connector.py: Response from order: {'orders': [{'id': 3, 'user_id': 1, 'card_id': 34}, {'id': 4, 'user_id': 1, 'card_id': 3}, {'id': 5, 'user_id': 2, 'card_id': 11}]}, 200
[2020-01-12 20:08:08,464] DEBUG in user_connector.py: Response from user connector: {'message': 'Service USER is not available'}, 503
[2020-01-12 20:08:32,410] INFO in card_user.py: GET: /card/3/user?
[2020-01-12 20:08:32,434] DEBUG in order_connector.py: Response from order: {'orders': [{'id': 3, 'user_id': 1, 'card_id': 34}, {'id': 4, 'user_id': 1, 'card_id': 3}, {'id': 5, 'user_id': 2, 'card_id': 11}]}, 200
[2020-01-12 20:08:32,459] DEBUG in user_connector.py: Response from user connector: {'users': [{'id': 1, 'username': 'Kizilov D.'}, {'id': 2, 'username': 'Michael Bale'}, {'id': 3, 'username': 'Rock'}, {'id': 4, 'username': 'Paper'}, {'id': 5, 'username': 'Scissors'}]}, 200
[2020-01-12 20:08:37,392] INFO in card.py: GET: /card?
[2020-01-12 20:08:37,473] DEBUG in card.py: Response from cards: {'cards': [{'id': 3, 'Name': 'UFC 243', 'Attendance': 1}, {'id': 4, 'Name': 'UFC 242', 'Attendance': 0}, {'id': 5, 'Name': 'UFC 241', 'Attendance': 0}, {'id': 6, 'Name': 'UFC 240', 'Attendance': 0}, {'id': 7, 'Name': 'UFC 239', 'Attendance': 0}, {'id': 8, 'Name': 'UFC 238', 'Attendance': 0}, {'id': 9, 'Name': 'UFC 237', 'Attendance': 0}, {'id': 10, 'Name': 'UFC 236', 'Attendance': 0}, {'id': 11, 'Name': 'UFC 235', 'Attendance': 1}, {'id': 12, 'Name': 'UFC 234', 'Attendance': 0}, {'id': 13, 'Name': 'UFC 233', 'Attendance': 0}, {'id': 14, 'Name': 'UFC 232', 'Attendance': 0}, {'id': 15, 'Name': 'UFC 231', 'Attendance': 0}, {'id': 16, 'Name': 'UFC 230', 'Attendance': 0}, {'id': 17, 'Name': 'UFC 229', 'Attendance': 0}, {'id': 18, 'Name': 'UFC 228', 'Attendance': 0}, {'id': 19, 'Name': 'UFC 227', 'Attendance': 0}, {'id': 20, 'Name': 'UFC 226', 'Attendance': 0}, {'id': 21, 'Name': 'UFC 225', 'Attendance': 0}, {'id': 22, 'Name': 'UFC 224', 'Attendance': 0}, {'id': 23, 'Name': 'UFC 223', 'Attendance': 0}, {'id': 24, 'Name': 'UFC 222', 'Attendance': 0}, {'id': 25, 'Name': 'UFC 221', 'Attendance': 0}, {'id': 26, 'Name': 'UFC 220', 'Attendance': 0}, {'id': 27, 'Name': 'UFC 219', 'Attendance': 0}, {'id': 28, 'Name': 'UFC 218', 'Attendance': 0}, {'id': 29, 'Name': 'UFC 217', 'Attendance': 0}, {'id': 30, 'Name': 'UFC 216', 'Attendance': 0}, {'id': 31, 'Name': 'UFC 215', 'Attendance': 0}, {'id': 32, 'Name': 'UFC 214', 'Attendance': 0}, {'id': 33, 'Name': 'UFC 213', 'Attendance': 0}, {'id': 34, 'Name': 'UFC 212', 'Attendance': 1}, {'id': 35, 'Name': 'UFC 211', 'Attendance': 0}, {'id': 36, 'Name': 'UFC 210', 'Attendance': 0}, {'id': 37, 'Name': 'UFC 209', 'Attendance': 0}, {'id': 38, 'Name': 'UFC 208', 'Attendance': 0}, {'id': 39, 'Name': 'UFC 207', 'Attendance': 0}, {'id': 40, 'Name': 'UFC 206', 'Attendance': 0}, {'id': 41, 'Name': 'UFC 205', 'Attendance': 0}, {'id': 42, 'Name': 'UFC 204', 'Attendance': 0}, {'id': 43, 'Name': 'UFC 203', 'Attendance': 0}, {'id': 44, 'Name': 'UFC 202', 'Attendance': 0}, {'id': 45, 'Name': 'UFC 201', 'Attendance': 0}, {'id': 46, 'Name': 'UFC 200', 'Attendance': 0}, {'id': 47, 'Name': 'UFC 199', 'Attendance': 0}, {'id': 48, 'Name': 'UFC 198', 'Attendance': 0}, {'id': 49, 'Name': 'UFC 197', 'Attendance': 0}, {'id': 50, 'Name': 'UFC 196', 'Attendance': 0}, {'id': 51, 'Name': 'UFC 195', 'Attendance': 0}, {'id': 52, 'Name': 'UFC 194', 'Attendance': 0}, {'id': 53, 'Name': 'UFC 193', 'Attendance': 0}, {'id': 54, 'Name': 'UFC 192', 'Attendance': 0}, {'id': 55, 'Name': 'UFC 191', 'Attendance': 0}, {'id': 56, 'Name': 'UFC 190', 'Attendance': 0}, {'id': 57, 'Name': 'UFC 189', 'Attendance': 0}, {'id': 58, 'Name': 'UFC 188', 'Attendance': 0}, {'id': 59, 'Name': 'UFC 187', 'Attendance': 0}, {'id': 60, 'Name': 'UFC 186', 'Attendance': 0}, {'id': 61, 'Name': 'UFC 185', 'Attendance': 0}, {'id': 62, 'Name': 'UFC 184', 'Attendance': 0}, {'id': 63, 'Name': 'UFC 183', 'Attendance': 0}, {'id': 64, 'Name': 'UFC 182', 'Attendance': 0}, {'id': 65, 'Name': 'UFC 181', 'Attendance': 0}, {'id': 66, 'Name': 'UFC 180', 'Attendance': 0}, {'id': 67, 'Name': 'UFC 179', 'Attendance': 0}, {'id': 68, 'Name': 'UFC 178', 'Attendance': 0}, {'id': 69, 'Name': 'UFC 177', 'Attendance': 0}, {'id': 70, 'Name': 'UFC 176', 'Attendance': 0}, {'id': 71, 'Name': 'UFC 175', 'Attendance': 0}, {'id': 72, 'Name': 'UFC 174', 'Attendance': 0}, {'id': 73, 'Name': 'UFC 173', 'Attendance': 0}, {'id': 74, 'Name': 'UFC 172', 'Attendance': 0}, {'id': 75, 'Name': 'UFC 171', 'Attendance': 0}, {'id': 76, 'Name': 'UFC 170', 'Attendance': 0}, {'id': 77, 'Name': 'UFC 169', 'Attendance': 0}, {'id': 78, 'Name': 'UFC 168', 'Attendance': 0}, {'id': 79, 'Name': 'UFC 167', 'Attendance': 0}, {'id': 80, 'Name': 'UFC 166', 'Attendance': 0}, {'id': 81, 'Name': 'UFC 165', 'Attendance': 0}, {'id': 82, 'Name': 'UFC 164', 'Attendance': 0}, {'id': 83, 'Name': 'UFC 163', 'Attendance': 0}, {'id': 84, 'Name': 'UFC 162', 'Attendance': 0}, {'id': 85, 'Name': 'UFC 161', 'Attendance': 0}, {'id': 86, 'Name': 'UFC 160', 'Attendance': 0}, {'id': 87, 'Name': 'UFC 159', 'Attendance': 0}, {'id': 88, 'Name': 'UFC 158', 'Attendance': 0}, {'id': 89, 'Name': 'UFC 157', 'Attendance': 0}, {'id': 90, 'Name': 'UFC 156', 'Attendance': 0}, {'id': 91, 'Name': 'UFC 155', 'Attendance': 0}, {'id': 92, 'Name': 'UFC 154', 'Attendance': 0}, {'id': 93, 'Name': 'UFC 153', 'Attendance': 0}, {'id': 94, 'Name': 'UFC 152', 'Attendance': 0}, {'id': 95, 'Name': 'UFC 151', 'Attendance': 0}, {'id': 96, 'Name': 'UFC 150', 'Attendance': 0}, {'id': 97, 'Name': 'UFC 149', 'Attendance': 0}, {'id': 98, 'Name': 'UFC 148', 'Attendance': 0}, {'id': 99, 'Name': 'UFC 147', 'Attendance': 0}, {'id': 100, 'Name': 'UFC 146', 'Attendance': 0}, {'id': 101, 'Name': 'UFC 145', 'Attendance': 0}, {'id': 102, 'Name': 'UFC 144', 'Attendance': 0}, {'id': 103, 'Name': 'UFC 143', 'Attendance': 0}, {'id': 104, 'Name': 'UFC 142', 'Attendance': 0}, {'id': 105, 'Name': 'UFC 141', 'Attendance': 0}, {'id': 106, 'Name': 'UFC 140', 'Attendance': 0}, {'id': 107, 'Name': 'UFC 139', 'Attendance': 0}, {'id': 108, 'Name': 'UFC 138', 'Attendance': 0}, {'id': 109, 'Name': 'UFC 137', 'Attendance': 0}, {'id': 110, 'Name': 'UFC 136', 'Attendance': 0}, {'id': 111, 'Name': 'UFC 135', 'Attendance': 0}, {'id': 112, 'Name': 'UFC 134', 'Attendance': 0}, {'id': 113, 'Name': 'UFC 133', 'Attendance': 0}, {'id': 114, 'Name': 'UFC 132', 'Attendance': 0}, {'id': 115, 'Name': 'UFC 131', 'Attendance': 0}, {'id': 116, 'Name': 'UFC 130', 'Attendance': 0}, {'id': 117, 'Name': 'UFC 129', 'Attendance': 0}, {'id': 118, 'Name': 'UFC 128', 'Attendance': 0}, {'id': 119, 'Name': 'UFC 127', 'Attendance': 0}, {'id': 120, 'Name': 'UFC 126', 'Attendance': 0}, {'id': 121, 'Name': 'UFC 125', 'Attendance': 0}, {'id': 122, 'Name': 'UFC 124', 'Attendance': 0}, {'id': 123, 'Name': 'UFC 123', 'Attendance': 0}, {'id': 124, 'Name': 'UFC 122', 'Attendance': 0}, {'id': 125, 'Name': 'UFC 121', 'Attendance': 0}, {'id': 126, 'Name': 'UFC 120', 'Attendance': 0}, {'id': 127, 'Name': 'UFC 119', 'Attendance': 0}, {'id': 128, 'Name': 'UFC 118', 'Attendance': 0}, {'id': 129, 'Name': 'UFC 117', 'Attendance': 0}, {'id': 130, 'Name': 'UFC 116', 'Attendance': 0}, {'id': 131, 'Name': 'UFC 115', 'Attendance': 0}, {'id': 132, 'Name': 'UFC 114', 'Attendance': 0}, {'id': 133, 'Name': 'UFC 113', 'Attendance': 0}, {'id': 134, 'Name': 'UFC 112', 'Attendance': 0}, {'id': 135, 'Name': 'UFC 111', 'Attendance': 0}, {'id': 136, 'Name': 'UFC 110', 'Attendance': 0}, {'id': 137, 'Name': 'UFC 109', 'Attendance': 0}, {'id': 138, 'Name': 'UFC 108', 'Attendance': 0}, {'id': 139, 'Name': 'UFC 107', 'Attendance': 0}, {'id': 140, 'Name': 'UFC 106', 'Attendance': 0}, {'id': 141, 'Name': 'UFC 105', 'Attendance': 0}, {'id': 142, 'Name': 'UFC 104', 'Attendance': 0}, {'id': 143, 'Name': 'UFC 103', 'Attendance': 0}, {'id': 144, 'Name': 'UFC 102', 'Attendance': 0}, {'id': 145, 'Name': 'UFC 101', 'Attendance': 0}, {'id': 146, 'Name': 'UFC 100', 'Attendance': 0}, {'id': 147, 'Name': 'UFC 99', 'Attendance': 0}, {'id': 148, 'Name': 'UFC 98', 'Attendance': 0}, {'id': 149, 'Name': 'UFC 97', 'Attendance': 0}, {'id': 150, 'Name': 'UFC 96', 'Attendance': 0}, {'id': 151, 'Name': 'UFC 95', 'Attendance': 0}, {'id': 152, 'Name': 'UFC 94', 'Attendance': 0}, {'id': 153, 'Name': 'UFC 93', 'Attendance': 0}, {'id': 154, 'Name': 'UFC 92', 'Attendance': 0}, {'id': 155, 'Name': 'UFC 91', 'Attendance': 0}, {'id': 156, 'Name': 'UFC 90', 'Attendance': 0}, {'id': 157, 'Name': 'UFC 89', 'Attendance': 0}, {'id': 158, 'Name': 'UFC 88', 'Attendance': 0}, {'id': 159, 'Name': 'UFC 87', 'Attendance': 0}, {'id': 160, 'Name': 'UFC 86', 'Attendance': 0}, {'id': 161, 'Name': 'UFC 85', 'Attendance': 0}, {'id': 162, 'Name': 'UFC 84', 'Attendance': 0}, {'id': 163, 'Name': 'UFC 83', 'Attendance': 0}, {'id': 164, 'Name': 'UFC 82', 'Attendance': 0}, {'id': 165, 'Name': 'UFC 81', 'Attendance': 0}, {'id': 166, 'Name': 'UFC 80', 'Attendance': 0}, {'id': 167, 'Name': 'UFC 79', 'Attendance': 0}, {'id': 168, 'Name': 'UFC 78', 'Attendance': 0}, {'id': 169, 'Name': 'UFC 77', 'Attendance': 0}, {'id': 170, 'Name': 'UFC 76', 'Attendance': 0}, {'id': 171, 'Name': 'UFC 75', 'Attendance': 0}, {'id': 172, 'Name': 'UFC 74', 'Attendance': 0}, {'id': 173, 'Name': 'UFC 73', 'Attendance': 0}, {'id': 174, 'Name': 'UFC 72', 'Attendance': 0}, {'id': 175, 'Name': 'UFC 71', 'Attendance': 0}, {'id': 176, 'Name': 'UFC 70', 'Attendance': 0}, {'id': 177, 'Name': 'UFC 69', 'Attendance': 0}, {'id': 178, 'Name': 'UFC 68', 'Attendance': 0}, {'id': 179, 'Name': 'UFC 67', 'Attendance': 0}, {'id': 180, 'Name': 'UFC 66', 'Attendance': 0}, {'id': 181, 'Name': 'UFC 65', 'Attendance': 0}, {'id': 182, 'Name': 'UFC 64', 'Attendance': 0}, {'id': 183, 'Name': 'UFC 63', 'Attendance': 0}, {'id': 184, 'Name': 'UFC 62', 'Attendance': 0}, {'id': 185, 'Name': 'UFC 61', 'Attendance': 0}, {'id': 186, 'Name': 'UFC 60', 'Attendance': 0}, {'id': 187, 'Name': 'UFC 59', 'Attendance': 0}, {'id': 188, 'Name': 'UFC 58', 'Attendance': 0}, {'id': 189, 'Name': 'UFC 57', 'Attendance': 0}, {'id': 190, 'Name': 'UFC 56', 'Attendance': 0}, {'id': 191, 'Name': 'UFC 55', 'Attendance': 0}, {'id': 192, 'Name': 'UFC 54', 'Attendance': 0}, {'id': 193, 'Name': 'UFC 53', 'Attendance': 0}, {'id': 194, 'Name': 'UFC 52', 'Attendance': 0}, {'id': 195, 'Name': 'UFC 51', 'Attendance': 0}, {'id': 196, 'Name': 'UFC 50', 'Attendance': 0}, {'id': 197, 'Name': 'UFC 49', 'Attendance': 0}, {'id': 198, 'Name': 'UFC 48', 'Attendance': 0}, {'id': 199, 'Name': 'UFC 47', 'Attendance': 0}, {'id': 200, 'Name': 'UFC 46', 'Attendance': 0}, {'id': 201, 'Name': 'UFC 45', 'Attendance': 0}, {'id': 202, 'Name': 'UFC 44', 'Attendance': 0}, {'id': 203, 'Name': 'UFC 43', 'Attendance': 0}, {'id': 204, 'Name': 'UFC 42', 'Attendance': 0}, {'id': 205, 'Name': 'UFC 41', 'Attendance': 0}, {'id': 206, 'Name': 'UFC 40', 'Attendance': 0}, {'id': 207, 'Name': 'UFC 39', 'Attendance': 0}, {'id': 208, 'Name': 'UFC 38', 'Attendance': 0}, {'id': 209, 'Name': 'UFC 37', 'Attendance': 0}, {'id': 210, 'Name': 'UFC 36', 'Attendance': 0}, {'id': 211, 'Name': 'UFC 35', 'Attendance': 0}, {'id': 212, 'Name': 'UFC 34', 'Attendance': 0}, {'id': 213, 'Name': 'UFC 33', 'Attendance': 0}, {'id': 214, 'Name': 'UFC 32', 'Attendance': 0}, {'id': 215, 'Name': 'UFC 31', 'Attendance': 0}, {'id': 216, 'Name': 'UFC 30', 'Attendance': 0}, {'id': 217, 'Name': 'UFC 29', 'Attendance': 0}, {'id': 218, 'Name': 'UFC 28', 'Attendance': 0}, {'id': 219, 'Name': 'UFC 27', 'Attendance': 0}, {'id': 220, 'Name': 'UFC 26', 'Attendance': 0}, {'id': 221, 'Name': 'UFC 25', 'Attendance': 0}, {'id': 222, 'Name': 'UFC 24', 'Attendance': 0}, {'id': 223, 'Name': 'UFC 23', 'Attendance': 0}, {'id': 224, 'Name': 'UFC 22', 'Attendance': 0}, {'id': 225, 'Name': 'UFC 21', 'Attendance': 0}, {'id': 226, 'Name': 'UFC 20', 'Attendance': 0}, {'id': 227, 'Name': 'UFC 19', 'Attendance': 0}, {'id': 228, 'Name': 'UFC 18', 'Attendance': 0}, {'id': 229, 'Name': 'UFC 17', 'Attendance': 0}, {'id': 230, 'Name': 'UFC 16', 'Attendance': 0}, {'id': 231, 'Name': 'UFC 15', 'Attendance': 0}, {'id': 232, 'Name': 'UFC 14', 'Attendance': 0}, {'id': 233, 'Name': 'UFC 13', 'Attendance': 0}, {'id': 234, 'Name': 'UFC 12', 'Attendance': 0}, {'id': 235, 'Name': 'UFC 11', 'Attendance': 0}, {'id': 236, 'Name': 'UFC 10', 'Attendance': 0}, {'id': 237, 'Name': 'UFC 9', 'Attendance': 0}, {'id': 238, 'Name': 'UFC 8', 'Attendance': 0}, {'id': 239, 'Name': 'UFC 7', 'Attendance': 0}, {'id': 240, 'Name': 'UFC 6', 'Attendance': 0}, {'id': 241, 'Name': 'UFC 5', 'Attendance': 0}, {'id': 242, 'Name': 'UFC 4', 'Attendance': 0}, {'id': 243, 'Name': 'UFC 3', 'Attendance': 0}, {'id': 244, 'Name': 'UFC 2', 'Attendance': 0}, {'id': 245, 'Name': 'UFC 1', 'Attendance': 0}]}, 200
[2020-01-12 20:08:40,175] INFO in card_user.py: GET: /card/3/user?
[2020-01-12 20:08:40,194] DEBUG in order_connector.py: Response from order: {'orders': [{'id': 3, 'user_id': 1, 'card_id': 34}, {'id': 4, 'user_id': 1, 'card_id': 3}, {'id': 5, 'user_id': 2, 'card_id': 11}]}, 200
[2020-01-12 20:08:40,213] DEBUG in user_connector.py: Response from user connector: {'users': [{'id': 1, 'username': 'Kizilov D.'}, {'id': 2, 'username': 'Michael Bale'}, {'id': 3, 'username': 'Rock'}, {'id': 4, 'username': 'Paper'}, {'id': 5, 'username': 'Scissors'}]}, 200
[2020-01-12 20:09:14,570] INFO in card_user.py: GET: /card/3/user?
[2020-01-12 20:09:14,603] DEBUG in order_connector.py: Response from order: {'orders': [{'id': 3, 'user_id': 1, 'card_id': 34}, {'id': 4, 'user_id': 1, 'card_id': 3}, {'id': 5, 'user_id': 2, 'card_id': 11}]}, 200
[2020-01-12 20:09:14,624] DEBUG in user_connector.py: Response from user connector: {'users': [{'id': 1, 'username': 'Kizilov D.'}, {'id': 2, 'username': 'Michael Bale'}, {'id': 3, 'username': 'Rock'}, {'id': 4, 'username': 'Paper'}, {'id': 5, 'username': 'Scissors'}]}, 200
[2020-01-12 20:09:29,175] INFO in card_user.py: GET: /card/3/user?
[2020-01-12 20:09:29,193] DEBUG in order_connector.py: Response from order: {'orders': [{'id': 3, 'user_id': 1, 'card_id': 34}, {'id': 4, 'user_id': 1, 'card_id': 3}, {'id': 5, 'user_id': 2, 'card_id': 11}]}, 200
[2020-01-12 20:09:29,201] DEBUG in user_connector.py: Response from user connector: {'message': 'Service USER is not available'}, 503
[2020-01-12 20:11:24,011] INFO in user.py: GET: /user?
[2020-01-12 20:11:24,036] DEBUG in user_connector.py: Response from user connector: {'message': 'Service USER is not available'}, 503
[2020-01-12 20:11:24,036] DEBUG in user.py: Response from servers: {'message': 'Service USER is not available'}, 503
[2020-01-12 20:13:42,464] INFO in user.py: GET: /user?
[2020-01-12 20:13:42,480] DEBUG in user_connector.py: Response from user connector: {'message': 'Service USER is not available'}, 503
[2020-01-12 20:13:42,481] DEBUG in user.py: Response from servers: {'message': 'Service USER is not available'}, 503
[2020-01-12 20:15:52,600] INFO in user.py: GET: /user?
[2020-01-12 20:15:52,626] DEBUG in user_connector.py: Response from user connector: {'message': 'Service USER is not available'}, 503
[2020-01-12 20:15:52,627] DEBUG in user.py: Response from servers: {'message': 'Service USER is not available'}, 503
[2020-01-12 20:16:11,681] INFO in user.py: GET: /user?
[2020-01-12 20:16:11,705] DEBUG in user_connector.py: Response from user connector: {'users': [{'id': 1, 'username': 'Kizilov D.'}, {'id': 2, 'username': 'Michael Bale'}, {'id': 3, 'username': 'Rock'}, {'id': 4, 'username': 'Paper'}, {'id': 5, 'username': 'Scissors'}]}, 200
[2020-01-12 20:16:11,706] DEBUG in user.py: Response from servers: {'users': [{'id': 1, 'username': 'Kizilov D.'}, {'id': 2, 'username': 'Michael Bale'}, {'id': 3, 'username': 'Rock'}, {'id': 4, 'username': 'Paper'}, {'id': 5, 'username': 'Scissors'}]}, 200
[2020-01-12 20:16:15,702] INFO in order.py: GET: /user/2/order?
[2020-01-12 20:16:15,898] DEBUG in order_connector.py: Response from order: {'orders': [{'id': 5, 'user_id': 2, 'card_id': 11}]}, 200
[2020-01-12 20:16:15,899] DEBUG in order.py: Response from servers: {'orders': [{'id': 5, 'user_id': 2, 'card_id': 11}]}, 200
[2020-01-12 20:16:21,751] INFO in order.py: POST: /user/2/order?
[2020-01-12 20:16:21,843] INFO in order.py: GET: /user/2/order?
[2020-01-12 20:16:21,877] DEBUG in order_connector.py: Response from order: {'orders': [{'id': 5, 'user_id': 2, 'card_id': 11}]}, 200
[2020-01-12 20:16:21,877] DEBUG in order.py: Response from servers: {'orders': [{'id': 5, 'user_id': 2, 'card_id': 11}]}, 200
[2020-01-12 20:16:24,933] INFO in order.py: POST: /user/2/order?
[2020-01-12 20:16:24,990] INFO in order.py: GET: /user/2/order?
[2020-01-12 20:16:25,013] DEBUG in order_connector.py: Response from order: {'orders': [{'id': 5, 'user_id': 2, 'card_id': 11}]}, 200
[2020-01-12 20:16:25,013] DEBUG in order.py: Response from servers: {'orders': [{'id': 5, 'user_id': 2, 'card_id': 11}]}, 200
[2020-01-12 20:16:28,446] INFO in order.py: POST: /user/2/order?
[2020-01-12 20:16:28,484] DEBUG in card_connector.py: Response from order: {'message': 'card with id: 3 attendance updated'}, 200
[2020-01-12 20:16:28,505] DEBUG in order_connector.py: Response from order: {'message': 'order with id: 6 created for 2 user_id.'}, 200
[2020-01-12 20:16:28,505] DEBUG in order.py: Response from card: {'message': 'order with id: 6 created for 2 user_id.'}, 200
[2020-01-12 20:16:28,539] INFO in order.py: GET: /user/2/order?
[2020-01-12 20:16:28,550] DEBUG in order_connector.py: Response from order: {'orders': [{'id': 5, 'user_id': 2, 'card_id': 11}, {'id': 6, 'user_id': 2, 'card_id': 3}]}, 200
[2020-01-12 20:16:28,550] DEBUG in order.py: Response from servers: {'orders': [{'id': 5, 'user_id': 2, 'card_id': 11}, {'id': 6, 'user_id': 2, 'card_id': 3}]}, 200
[2020-01-12 20:16:34,109] INFO in order.py: POST: /user/2/order?
[2020-01-12 20:16:34,142] DEBUG in card_connector.py: Response from order: {'message': 'card with id: 4 attendance updated'}, 200
[2020-01-12 20:16:34,161] DEBUG in order_connector.py: Response from order: {'message': 'order with id: 7 created for 2 user_id.'}, 200
[2020-01-12 20:16:34,162] DEBUG in order.py: Response from card: {'message': 'order with id: 7 created for 2 user_id.'}, 200
[2020-01-12 20:16:34,181] INFO in order.py: GET: /user/2/order?
[2020-01-12 20:16:34,210] DEBUG in order_connector.py: Response from order: {'orders': [{'id': 5, 'user_id': 2, 'card_id': 11}, {'id': 6, 'user_id': 2, 'card_id': 3}, {'id': 7, 'user_id': 2, 'card_id': 4}]}, 200
[2020-01-12 20:16:34,211] DEBUG in order.py: Response from servers: {'orders': [{'id': 5, 'user_id': 2, 'card_id': 11}, {'id': 6, 'user_id': 2, 'card_id': 3}, {'id': 7, 'user_id': 2, 'card_id': 4}]}, 200
[2020-01-12 20:16:40,380] INFO in card.py: GET: /card?
[2020-01-12 20:16:40,436] DEBUG in card.py: Response from cards: {'cards': [{'id': 3, 'Name': 'UFC 243', 'Attendance': 2}, {'id': 4, 'Name': 'UFC 242', 'Attendance': 1}, {'id': 5, 'Name': 'UFC 241', 'Attendance': 0}, {'id': 6, 'Name': 'UFC 240', 'Attendance': 0}, {'id': 7, 'Name': 'UFC 239', 'Attendance': 0}, {'id': 8, 'Name': 'UFC 238', 'Attendance': 0}, {'id': 9, 'Name': 'UFC 237', 'Attendance': 0}, {'id': 10, 'Name': 'UFC 236', 'Attendance': 0}, {'id': 11, 'Name': 'UFC 235', 'Attendance': 1}, {'id': 12, 'Name': 'UFC 234', 'Attendance': 0}, {'id': 13, 'Name': 'UFC 233', 'Attendance': 0}, {'id': 14, 'Name': 'UFC 232', 'Attendance': 0}, {'id': 15, 'Name': 'UFC 231', 'Attendance': 0}, {'id': 16, 'Name': 'UFC 230', 'Attendance': 0}, {'id': 17, 'Name': 'UFC 229', 'Attendance': 0}, {'id': 18, 'Name': 'UFC 228', 'Attendance': 0}, {'id': 19, 'Name': 'UFC 227', 'Attendance': 0}, {'id': 20, 'Name': 'UFC 226', 'Attendance': 0}, {'id': 21, 'Name': 'UFC 225', 'Attendance': 0}, {'id': 22, 'Name': 'UFC 224', 'Attendance': 0}, {'id': 23, 'Name': 'UFC 223', 'Attendance': 0}, {'id': 24, 'Name': 'UFC 222', 'Attendance': 0}, {'id': 25, 'Name': 'UFC 221', 'Attendance': 0}, {'id': 26, 'Name': 'UFC 220', 'Attendance': 0}, {'id': 27, 'Name': 'UFC 219', 'Attendance': 0}, {'id': 28, 'Name': 'UFC 218', 'Attendance': 0}, {'id': 29, 'Name': 'UFC 217', 'Attendance': 0}, {'id': 30, 'Name': 'UFC 216', 'Attendance': 0}, {'id': 31, 'Name': 'UFC 215', 'Attendance': 0}, {'id': 32, 'Name': 'UFC 214', 'Attendance': 0}, {'id': 33, 'Name': 'UFC 213', 'Attendance': 0}, {'id': 34, 'Name': 'UFC 212', 'Attendance': 1}, {'id': 35, 'Name': 'UFC 211', 'Attendance': 0}, {'id': 36, 'Name': 'UFC 210', 'Attendance': 0}, {'id': 37, 'Name': 'UFC 209', 'Attendance': 0}, {'id': 38, 'Name': 'UFC 208', 'Attendance': 0}, {'id': 39, 'Name': 'UFC 207', 'Attendance': 0}, {'id': 40, 'Name': 'UFC 206', 'Attendance': 0}, {'id': 41, 'Name': 'UFC 205', 'Attendance': 0}, {'id': 42, 'Name': 'UFC 204', 'Attendance': 0}, {'id': 43, 'Name': 'UFC 203', 'Attendance': 0}, {'id': 44, 'Name': 'UFC 202', 'Attendance': 0}, {'id': 45, 'Name': 'UFC 201', 'Attendance': 0}, {'id': 46, 'Name': 'UFC 200', 'Attendance': 0}, {'id': 47, 'Name': 'UFC 199', 'Attendance': 0}, {'id': 48, 'Name': 'UFC 198', 'Attendance': 0}, {'id': 49, 'Name': 'UFC 197', 'Attendance': 0}, {'id': 50, 'Name': 'UFC 196', 'Attendance': 0}, {'id': 51, 'Name': 'UFC 195', 'Attendance': 0}, {'id': 52, 'Name': 'UFC 194', 'Attendance': 0}, {'id': 53, 'Name': 'UFC 193', 'Attendance': 0}, {'id': 54, 'Name': 'UFC 192', 'Attendance': 0}, {'id': 55, 'Name': 'UFC 191', 'Attendance': 0}, {'id': 56, 'Name': 'UFC 190', 'Attendance': 0}, {'id': 57, 'Name': 'UFC 189', 'Attendance': 0}, {'id': 58, 'Name': 'UFC 188', 'Attendance': 0}, {'id': 59, 'Name': 'UFC 187', 'Attendance': 0}, {'id': 60, 'Name': 'UFC 186', 'Attendance': 0}, {'id': 61, 'Name': 'UFC 185', 'Attendance': 0}, {'id': 62, 'Name': 'UFC 184', 'Attendance': 0}, {'id': 63, 'Name': 'UFC 183', 'Attendance': 0}, {'id': 64, 'Name': 'UFC 182', 'Attendance': 0}, {'id': 65, 'Name': 'UFC 181', 'Attendance': 0}, {'id': 66, 'Name': 'UFC 180', 'Attendance': 0}, {'id': 67, 'Name': 'UFC 179', 'Attendance': 0}, {'id': 68, 'Name': 'UFC 178', 'Attendance': 0}, {'id': 69, 'Name': 'UFC 177', 'Attendance': 0}, {'id': 70, 'Name': 'UFC 176', 'Attendance': 0}, {'id': 71, 'Name': 'UFC 175', 'Attendance': 0}, {'id': 72, 'Name': 'UFC 174', 'Attendance': 0}, {'id': 73, 'Name': 'UFC 173', 'Attendance': 0}, {'id': 74, 'Name': 'UFC 172', 'Attendance': 0}, {'id': 75, 'Name': 'UFC 171', 'Attendance': 0}, {'id': 76, 'Name': 'UFC 170', 'Attendance': 0}, {'id': 77, 'Name': 'UFC 169', 'Attendance': 0}, {'id': 78, 'Name': 'UFC 168', 'Attendance': 0}, {'id': 79, 'Name': 'UFC 167', 'Attendance': 0}, {'id': 80, 'Name': 'UFC 166', 'Attendance': 0}, {'id': 81, 'Name': 'UFC 165', 'Attendance': 0}, {'id': 82, 'Name': 'UFC 164', 'Attendance': 0}, {'id': 83, 'Name': 'UFC 163', 'Attendance': 0}, {'id': 84, 'Name': 'UFC 162', 'Attendance': 0}, {'id': 85, 'Name': 'UFC 161', 'Attendance': 0}, {'id': 86, 'Name': 'UFC 160', 'Attendance': 0}, {'id': 87, 'Name': 'UFC 159', 'Attendance': 0}, {'id': 88, 'Name': 'UFC 158', 'Attendance': 0}, {'id': 89, 'Name': 'UFC 157', 'Attendance': 0}, {'id': 90, 'Name': 'UFC 156', 'Attendance': 0}, {'id': 91, 'Name': 'UFC 155', 'Attendance': 0}, {'id': 92, 'Name': 'UFC 154', 'Attendance': 0}, {'id': 93, 'Name': 'UFC 153', 'Attendance': 0}, {'id': 94, 'Name': 'UFC 152', 'Attendance': 0}, {'id': 95, 'Name': 'UFC 151', 'Attendance': 0}, {'id': 96, 'Name': 'UFC 150', 'Attendance': 0}, {'id': 97, 'Name': 'UFC 149', 'Attendance': 0}, {'id': 98, 'Name': 'UFC 148', 'Attendance': 0}, {'id': 99, 'Name': 'UFC 147', 'Attendance': 0}, {'id': 100, 'Name': 'UFC 146', 'Attendance': 0}, {'id': 101, 'Name': 'UFC 145', 'Attendance': 0}, {'id': 102, 'Name': 'UFC 144', 'Attendance': 0}, {'id': 103, 'Name': 'UFC 143', 'Attendance': 0}, {'id': 104, 'Name': 'UFC 142', 'Attendance': 0}, {'id': 105, 'Name': 'UFC 141', 'Attendance': 0}, {'id': 106, 'Name': 'UFC 140', 'Attendance': 0}, {'id': 107, 'Name': 'UFC 139', 'Attendance': 0}, {'id': 108, 'Name': 'UFC 138', 'Attendance': 0}, {'id': 109, 'Name': 'UFC 137', 'Attendance': 0}, {'id': 110, 'Name': 'UFC 136', 'Attendance': 0}, {'id': 111, 'Name': 'UFC 135', 'Attendance': 0}, {'id': 112, 'Name': 'UFC 134', 'Attendance': 0}, {'id': 113, 'Name': 'UFC 133', 'Attendance': 0}, {'id': 114, 'Name': 'UFC 132', 'Attendance': 0}, {'id': 115, 'Name': 'UFC 131', 'Attendance': 0}, {'id': 116, 'Name': 'UFC 130', 'Attendance': 0}, {'id': 117, 'Name': 'UFC 129', 'Attendance': 0}, {'id': 118, 'Name': 'UFC 128', 'Attendance': 0}, {'id': 119, 'Name': 'UFC 127', 'Attendance': 0}, {'id': 120, 'Name': 'UFC 126', 'Attendance': 0}, {'id': 121, 'Name': 'UFC 125', 'Attendance': 0}, {'id': 122, 'Name': 'UFC 124', 'Attendance': 0}, {'id': 123, 'Name': 'UFC 123', 'Attendance': 0}, {'id': 124, 'Name': 'UFC 122', 'Attendance': 0}, {'id': 125, 'Name': 'UFC 121', 'Attendance': 0}, {'id': 126, 'Name': 'UFC 120', 'Attendance': 0}, {'id': 127, 'Name': 'UFC 119', 'Attendance': 0}, {'id': 128, 'Name': 'UFC 118', 'Attendance': 0}, {'id': 129, 'Name': 'UFC 117', 'Attendance': 0}, {'id': 130, 'Name': 'UFC 116', 'Attendance': 0}, {'id': 131, 'Name': 'UFC 115', 'Attendance': 0}, {'id': 132, 'Name': 'UFC 114', 'Attendance': 0}, {'id': 133, 'Name': 'UFC 113', 'Attendance': 0}, {'id': 134, 'Name': 'UFC 112', 'Attendance': 0}, {'id': 135, 'Name': 'UFC 111', 'Attendance': 0}, {'id': 136, 'Name': 'UFC 110', 'Attendance': 0}, {'id': 137, 'Name': 'UFC 109', 'Attendance': 0}, {'id': 138, 'Name': 'UFC 108', 'Attendance': 0}, {'id': 139, 'Name': 'UFC 107', 'Attendance': 0}, {'id': 140, 'Name': 'UFC 106', 'Attendance': 0}, {'id': 141, 'Name': 'UFC 105', 'Attendance': 0}, {'id': 142, 'Name': 'UFC 104', 'Attendance': 0}, {'id': 143, 'Name': 'UFC 103', 'Attendance': 0}, {'id': 144, 'Name': 'UFC 102', 'Attendance': 0}, {'id': 145, 'Name': 'UFC 101', 'Attendance': 0}, {'id': 146, 'Name': 'UFC 100', 'Attendance': 0}, {'id': 147, 'Name': 'UFC 99', 'Attendance': 0}, {'id': 148, 'Name': 'UFC 98', 'Attendance': 0}, {'id': 149, 'Name': 'UFC 97', 'Attendance': 0}, {'id': 150, 'Name': 'UFC 96', 'Attendance': 0}, {'id': 151, 'Name': 'UFC 95', 'Attendance': 0}, {'id': 152, 'Name': 'UFC 94', 'Attendance': 0}, {'id': 153, 'Name': 'UFC 93', 'Attendance': 0}, {'id': 154, 'Name': 'UFC 92', 'Attendance': 0}, {'id': 155, 'Name': 'UFC 91', 'Attendance': 0}, {'id': 156, 'Name': 'UFC 90', 'Attendance': 0}, {'id': 157, 'Name': 'UFC 89', 'Attendance': 0}, {'id': 158, 'Name': 'UFC 88', 'Attendance': 0}, {'id': 159, 'Name': 'UFC 87', 'Attendance': 0}, {'id': 160, 'Name': 'UFC 86', 'Attendance': 0}, {'id': 161, 'Name': 'UFC 85', 'Attendance': 0}, {'id': 162, 'Name': 'UFC 84', 'Attendance': 0}, {'id': 163, 'Name': 'UFC 83', 'Attendance': 0}, {'id': 164, 'Name': 'UFC 82', 'Attendance': 0}, {'id': 165, 'Name': 'UFC 81', 'Attendance': 0}, {'id': 166, 'Name': 'UFC 80', 'Attendance': 0}, {'id': 167, 'Name': 'UFC 79', 'Attendance': 0}, {'id': 168, 'Name': 'UFC 78', 'Attendance': 0}, {'id': 169, 'Name': 'UFC 77', 'Attendance': 0}, {'id': 170, 'Name': 'UFC 76', 'Attendance': 0}, {'id': 171, 'Name': 'UFC 75', 'Attendance': 0}, {'id': 172, 'Name': 'UFC 74', 'Attendance': 0}, {'id': 173, 'Name': 'UFC 73', 'Attendance': 0}, {'id': 174, 'Name': 'UFC 72', 'Attendance': 0}, {'id': 175, 'Name': 'UFC 71', 'Attendance': 0}, {'id': 176, 'Name': 'UFC 70', 'Attendance': 0}, {'id': 177, 'Name': 'UFC 69', 'Attendance': 0}, {'id': 178, 'Name': 'UFC 68', 'Attendance': 0}, {'id': 179, 'Name': 'UFC 67', 'Attendance': 0}, {'id': 180, 'Name': 'UFC 66', 'Attendance': 0}, {'id': 181, 'Name': 'UFC 65', 'Attendance': 0}, {'id': 182, 'Name': 'UFC 64', 'Attendance': 0}, {'id': 183, 'Name': 'UFC 63', 'Attendance': 0}, {'id': 184, 'Name': 'UFC 62', 'Attendance': 0}, {'id': 185, 'Name': 'UFC 61', 'Attendance': 0}, {'id': 186, 'Name': 'UFC 60', 'Attendance': 0}, {'id': 187, 'Name': 'UFC 59', 'Attendance': 0}, {'id': 188, 'Name': 'UFC 58', 'Attendance': 0}, {'id': 189, 'Name': 'UFC 57', 'Attendance': 0}, {'id': 190, 'Name': 'UFC 56', 'Attendance': 0}, {'id': 191, 'Name': 'UFC 55', 'Attendance': 0}, {'id': 192, 'Name': 'UFC 54', 'Attendance': 0}, {'id': 193, 'Name': 'UFC 53', 'Attendance': 0}, {'id': 194, 'Name': 'UFC 52', 'Attendance': 0}, {'id': 195, 'Name': 'UFC 51', 'Attendance': 0}, {'id': 196, 'Name': 'UFC 50', 'Attendance': 0}, {'id': 197, 'Name': 'UFC 49', 'Attendance': 0}, {'id': 198, 'Name': 'UFC 48', 'Attendance': 0}, {'id': 199, 'Name': 'UFC 47', 'Attendance': 0}, {'id': 200, 'Name': 'UFC 46', 'Attendance': 0}, {'id': 201, 'Name': 'UFC 45', 'Attendance': 0}, {'id': 202, 'Name': 'UFC 44', 'Attendance': 0}, {'id': 203, 'Name': 'UFC 43', 'Attendance': 0}, {'id': 204, 'Name': 'UFC 42', 'Attendance': 0}, {'id': 205, 'Name': 'UFC 41', 'Attendance': 0}, {'id': 206, 'Name': 'UFC 40', 'Attendance': 0}, {'id': 207, 'Name': 'UFC 39', 'Attendance': 0}, {'id': 208, 'Name': 'UFC 38', 'Attendance': 0}, {'id': 209, 'Name': 'UFC 37', 'Attendance': 0}, {'id': 210, 'Name': 'UFC 36', 'Attendance': 0}, {'id': 211, 'Name': 'UFC 35', 'Attendance': 0}, {'id': 212, 'Name': 'UFC 34', 'Attendance': 0}, {'id': 213, 'Name': 'UFC 33', 'Attendance': 0}, {'id': 214, 'Name': 'UFC 32', 'Attendance': 0}, {'id': 215, 'Name': 'UFC 31', 'Attendance': 0}, {'id': 216, 'Name': 'UFC 30', 'Attendance': 0}, {'id': 217, 'Name': 'UFC 29', 'Attendance': 0}, {'id': 218, 'Name': 'UFC 28', 'Attendance': 0}, {'id': 219, 'Name': 'UFC 27', 'Attendance': 0}, {'id': 220, 'Name': 'UFC 26', 'Attendance': 0}, {'id': 221, 'Name': 'UFC 25', 'Attendance': 0}, {'id': 222, 'Name': 'UFC 24', 'Attendance': 0}, {'id': 223, 'Name': 'UFC 23', 'Attendance': 0}, {'id': 224, 'Name': 'UFC 22', 'Attendance': 0}, {'id': 225, 'Name': 'UFC 21', 'Attendance': 0}, {'id': 226, 'Name': 'UFC 20', 'Attendance': 0}, {'id': 227, 'Name': 'UFC 19', 'Attendance': 0}, {'id': 228, 'Name': 'UFC 18', 'Attendance': 0}, {'id': 229, 'Name': 'UFC 17', 'Attendance': 0}, {'id': 230, 'Name': 'UFC 16', 'Attendance': 0}, {'id': 231, 'Name': 'UFC 15', 'Attendance': 0}, {'id': 232, 'Name': 'UFC 14', 'Attendance': 0}, {'id': 233, 'Name': 'UFC 13', 'Attendance': 0}, {'id': 234, 'Name': 'UFC 12', 'Attendance': 0}, {'id': 235, 'Name': 'UFC 11', 'Attendance': 0}, {'id': 236, 'Name': 'UFC 10', 'Attendance': 0}, {'id': 237, 'Name': 'UFC 9', 'Attendance': 0}, {'id': 238, 'Name': 'UFC 8', 'Attendance': 0}, {'id': 239, 'Name': 'UFC 7', 'Attendance': 0}, {'id': 240, 'Name': 'UFC 6', 'Attendance': 0}, {'id': 241, 'Name': 'UFC 5', 'Attendance': 0}, {'id': 242, 'Name': 'UFC 4', 'Attendance': 0}, {'id': 243, 'Name': 'UFC 3', 'Attendance': 0}, {'id': 244, 'Name': 'UFC 2', 'Attendance': 0}, {'id': 245, 'Name': 'UFC 1', 'Attendance': 0}]}, 200
[2020-01-12 20:16:43,638] INFO in card_user.py: GET: /card/3/user?
[2020-01-12 20:16:43,661] DEBUG in order_connector.py: Response from order: {'orders': [{'id': 3, 'user_id': 1, 'card_id': 34}, {'id': 4, 'user_id': 1, 'card_id': 3}, {'id': 5, 'user_id': 2, 'card_id': 11}, {'id': 6, 'user_id': 2, 'card_id': 3}, {'id': 7, 'user_id': 2, 'card_id': 4}]}, 200
[2020-01-12 20:16:43,682] DEBUG in user_connector.py: Response from user connector: {'users': [{'id': 1, 'username': 'Kizilov D.'}, {'id': 2, 'username': 'Michael Bale'}, {'id': 3, 'username': 'Rock'}, {'id': 4, 'username': 'Paper'}, {'id': 5, 'username': 'Scissors'}]}, 200
[2020-01-12 20:16:52,586] INFO in card_user.py: GET: /card/3/user?
[2020-01-12 20:16:52,598] DEBUG in order_connector.py: Response from order: {'orders': [{'id': 3, 'user_id': 1, 'card_id': 34}, {'id': 4, 'user_id': 1, 'card_id': 3}, {'id': 5, 'user_id': 2, 'card_id': 11}, {'id': 6, 'user_id': 2, 'card_id': 3}, {'id': 7, 'user_id': 2, 'card_id': 4}]}, 200
[2020-01-12 20:16:52,606] DEBUG in user_connector.py: Response from user connector: {'message': 'Service USER is not available'}, 503
[2020-01-12 20:17:06,361] INFO in card_user.py: GET: /card/3/user?
[2020-01-12 20:17:06,378] DEBUG in order_connector.py: Response from order: {'orders': [{'id': 3, 'user_id': 1, 'card_id': 34}, {'id': 4, 'user_id': 1, 'card_id': 3}, {'id': 5, 'user_id': 2, 'card_id': 11}, {'id': 6, 'user_id': 2, 'card_id': 3}, {'id': 7, 'user_id': 2, 'card_id': 4}]}, 200
[2020-01-12 20:17:06,404] DEBUG in user_connector.py: Response from user connector: {'users': [{'id': 1, 'username': 'Kizilov D.'}, {'id': 2, 'username': 'Michael Bale'}, {'id': 3, 'username': 'Rock'}, {'id': 4, 'username': 'Paper'}, {'id': 5, 'username': 'Scissors'}]}, 200
[2020-01-12 20:17:41,736] INFO in card_user.py: GET: /card/3/user?
[2020-01-12 20:17:41,787] DEBUG in order_connector.py: Response from order: {'orders': [{'id': 3, 'user_id': 1, 'card_id': 34}, {'id': 4, 'user_id': 1, 'card_id': 3}, {'id': 5, 'user_id': 2, 'card_id': 11}, {'id': 6, 'user_id': 2, 'card_id': 3}, {'id': 7, 'user_id': 2, 'card_id': 4}]}, 200
[2020-01-12 20:17:41,796] DEBUG in user_connector.py: Response from user connector: {'message': 'Service USER is not available'}, 503
[2020-01-12 20:20:39,010] INFO in user.py: GET: /user?
[2020-01-12 20:20:39,038] DEBUG in user_connector.py: Response from user connector: {'users': [{'id': 1, 'username': 'Kizilov D.'}, {'id': 2, 'username': 'Michael Bale'}, {'id': 3, 'username': 'Rock'}, {'id': 4, 'username': 'Paper'}, {'id': 5, 'username': 'Scissors'}]}, 200
[2020-01-12 20:20:39,038] DEBUG in user.py: Response from servers: {'users': [{'id': 1, 'username': 'Kizilov D.'}, {'id': 2, 'username': 'Michael Bale'}, {'id': 3, 'username': 'Rock'}, {'id': 4, 'username': 'Paper'}, {'id': 5, 'username': 'Scissors'}]}, 200
[2020-01-12 20:20:40,796] INFO in order.py: GET: /user/1/order?
[2020-01-12 20:20:40,816] DEBUG in order_connector.py: Response from order: {'orders': [{'id': 3, 'user_id': 1, 'card_id': 34}, {'id': 4, 'user_id': 1, 'card_id': 3}]}, 200
[2020-01-12 20:20:40,817] DEBUG in order.py: Response from servers: {'orders': [{'id': 3, 'user_id': 1, 'card_id': 34}, {'id': 4, 'user_id': 1, 'card_id': 3}]}, 200
[2020-01-12 20:21:14,031] INFO in order.py: POST: /user/1/order?
[2020-01-12 20:21:14,046] DEBUG in card_connector.py: Response from order: {'message': 'Service CARD is not available'}, 503
[2020-01-12 20:21:14,072] INFO in order.py: GET: /user/1/order?
[2020-01-12 20:21:14,094] DEBUG in order_connector.py: Response from order: {'orders': [{'id': 3, 'user_id': 1, 'card_id': 34}, {'id': 4, 'user_id': 1, 'card_id': 3}]}, 200
[2020-01-12 20:21:14,094] DEBUG in order.py: Response from servers: {'orders': [{'id': 3, 'user_id': 1, 'card_id': 34}, {'id': 4, 'user_id': 1, 'card_id': 3}]}, 200
[2020-01-12 20:21:24,157] INFO in order.py: GET: /user/1/order?
[2020-01-12 20:21:24,177] DEBUG in order_connector.py: Response from order: {'orders': [{'id': 3, 'user_id': 1, 'card_id': 34}, {'id': 4, 'user_id': 1, 'card_id': 3}]}, 200
[2020-01-12 20:21:24,177] DEBUG in order.py: Response from servers: {'orders': [{'id': 3, 'user_id': 1, 'card_id': 34}, {'id': 4, 'user_id': 1, 'card_id': 3}]}, 200
[2020-01-12 20:21:35,393] INFO in order.py: GET: /user/1/order?
[2020-01-12 20:21:35,417] DEBUG in order_connector.py: Response from order: {'orders': [{'id': 3, 'user_id': 1, 'card_id': 34}, {'id': 4, 'user_id': 1, 'card_id': 3}]}, 200
[2020-01-12 20:21:35,418] DEBUG in order.py: Response from servers: {'orders': [{'id': 3, 'user_id': 1, 'card_id': 34}, {'id': 4, 'user_id': 1, 'card_id': 3}]}, 200
[2020-01-12 20:22:21,230] INFO in card.py: GET: /card?
[2020-01-12 20:22:21,240] DEBUG in card.py: Response from cards: {'message': 'Service CARD is not available'}, 503
[2020-01-12 20:22:33,541] INFO in card.py: GET: /card?
[2020-01-12 20:22:33,577] DEBUG in card.py: Response from cards: {'cards': [{'id': 3, 'Name': 'UFC 243', 'Attendance': 2}, {'id': 4, 'Name': 'UFC 242', 'Attendance': 1}, {'id': 5, 'Name': 'UFC 241', 'Attendance': 0}, {'id': 6, 'Name': 'UFC 240', 'Attendance': 0}, {'id': 7, 'Name': 'UFC 239', 'Attendance': 0}, {'id': 8, 'Name': 'UFC 238', 'Attendance': 0}, {'id': 9, 'Name': 'UFC 237', 'Attendance': 0}, {'id': 10, 'Name': 'UFC 236', 'Attendance': 0}, {'id': 11, 'Name': 'UFC 235', 'Attendance': 1}, {'id': 12, 'Name': 'UFC 234', 'Attendance': 0}, {'id': 13, 'Name': 'UFC 233', 'Attendance': 0}, {'id': 14, 'Name': 'UFC 232', 'Attendance': 0}, {'id': 15, 'Name': 'UFC 231', 'Attendance': 0}, {'id': 16, 'Name': 'UFC 230', 'Attendance': 0}, {'id': 17, 'Name': 'UFC 229', 'Attendance': 0}, {'id': 18, 'Name': 'UFC 228', 'Attendance': 0}, {'id': 19, 'Name': 'UFC 227', 'Attendance': 0}, {'id': 20, 'Name': 'UFC 226', 'Attendance': 0}, {'id': 21, 'Name': 'UFC 225', 'Attendance': 0}, {'id': 22, 'Name': 'UFC 224', 'Attendance': 0}, {'id': 23, 'Name': 'UFC 223', 'Attendance': 0}, {'id': 24, 'Name': 'UFC 222', 'Attendance': 0}, {'id': 25, 'Name': 'UFC 221', 'Attendance': 0}, {'id': 26, 'Name': 'UFC 220', 'Attendance': 0}, {'id': 27, 'Name': 'UFC 219', 'Attendance': 0}, {'id': 28, 'Name': 'UFC 218', 'Attendance': 0}, {'id': 29, 'Name': 'UFC 217', 'Attendance': 0}, {'id': 30, 'Name': 'UFC 216', 'Attendance': 0}, {'id': 31, 'Name': 'UFC 215', 'Attendance': 0}, {'id': 32, 'Name': 'UFC 214', 'Attendance': 0}, {'id': 33, 'Name': 'UFC 213', 'Attendance': 0}, {'id': 34, 'Name': 'UFC 212', 'Attendance': 1}, {'id': 35, 'Name': 'UFC 211', 'Attendance': 0}, {'id': 36, 'Name': 'UFC 210', 'Attendance': 0}, {'id': 37, 'Name': 'UFC 209', 'Attendance': 0}, {'id': 38, 'Name': 'UFC 208', 'Attendance': 0}, {'id': 39, 'Name': 'UFC 207', 'Attendance': 0}, {'id': 40, 'Name': 'UFC 206', 'Attendance': 0}, {'id': 41, 'Name': 'UFC 205', 'Attendance': 0}, {'id': 42, 'Name': 'UFC 204', 'Attendance': 0}, {'id': 43, 'Name': 'UFC 203', 'Attendance': 0}, {'id': 44, 'Name': 'UFC 202', 'Attendance': 0}, {'id': 45, 'Name': 'UFC 201', 'Attendance': 0}, {'id': 46, 'Name': 'UFC 200', 'Attendance': 0}, {'id': 47, 'Name': 'UFC 199', 'Attendance': 0}, {'id': 48, 'Name': 'UFC 198', 'Attendance': 0}, {'id': 49, 'Name': 'UFC 197', 'Attendance': 0}, {'id': 50, 'Name': 'UFC 196', 'Attendance': 0}, {'id': 51, 'Name': 'UFC 195', 'Attendance': 0}, {'id': 52, 'Name': 'UFC 194', 'Attendance': 0}, {'id': 53, 'Name': 'UFC 193', 'Attendance': 0}, {'id': 54, 'Name': 'UFC 192', 'Attendance': 0}, {'id': 55, 'Name': 'UFC 191', 'Attendance': 0}, {'id': 56, 'Name': 'UFC 190', 'Attendance': 0}, {'id': 57, 'Name': 'UFC 189', 'Attendance': 0}, {'id': 58, 'Name': 'UFC 188', 'Attendance': 0}, {'id': 59, 'Name': 'UFC 187', 'Attendance': 0}, {'id': 60, 'Name': 'UFC 186', 'Attendance': 0}, {'id': 61, 'Name': 'UFC 185', 'Attendance': 0}, {'id': 62, 'Name': 'UFC 184', 'Attendance': 0}, {'id': 63, 'Name': 'UFC 183', 'Attendance': 0}, {'id': 64, 'Name': 'UFC 182', 'Attendance': 0}, {'id': 65, 'Name': 'UFC 181', 'Attendance': 0}, {'id': 66, 'Name': 'UFC 180', 'Attendance': 0}, {'id': 67, 'Name': 'UFC 179', 'Attendance': 0}, {'id': 68, 'Name': 'UFC 178', 'Attendance': 0}, {'id': 69, 'Name': 'UFC 177', 'Attendance': 0}, {'id': 70, 'Name': 'UFC 176', 'Attendance': 0}, {'id': 71, 'Name': 'UFC 175', 'Attendance': 0}, {'id': 72, 'Name': 'UFC 174', 'Attendance': 0}, {'id': 73, 'Name': 'UFC 173', 'Attendance': 0}, {'id': 74, 'Name': 'UFC 172', 'Attendance': 0}, {'id': 75, 'Name': 'UFC 171', 'Attendance': 0}, {'id': 76, 'Name': 'UFC 170', 'Attendance': 0}, {'id': 77, 'Name': 'UFC 169', 'Attendance': 0}, {'id': 78, 'Name': 'UFC 168', 'Attendance': 0}, {'id': 79, 'Name': 'UFC 167', 'Attendance': 0}, {'id': 80, 'Name': 'UFC 166', 'Attendance': 0}, {'id': 81, 'Name': 'UFC 165', 'Attendance': 0}, {'id': 82, 'Name': 'UFC 164', 'Attendance': 0}, {'id': 83, 'Name': 'UFC 163', 'Attendance': 0}, {'id': 84, 'Name': 'UFC 162', 'Attendance': 0}, {'id': 85, 'Name': 'UFC 161', 'Attendance': 0}, {'id': 86, 'Name': 'UFC 160', 'Attendance': 0}, {'id': 87, 'Name': 'UFC 159', 'Attendance': 0}, {'id': 88, 'Name': 'UFC 158', 'Attendance': 0}, {'id': 89, 'Name': 'UFC 157', 'Attendance': 0}, {'id': 90, 'Name': 'UFC 156', 'Attendance': 0}, {'id': 91, 'Name': 'UFC 155', 'Attendance': 0}, {'id': 92, 'Name': 'UFC 154', 'Attendance': 0}, {'id': 93, 'Name': 'UFC 153', 'Attendance': 0}, {'id': 94, 'Name': 'UFC 152', 'Attendance': 0}, {'id': 95, 'Name': 'UFC 151', 'Attendance': 0}, {'id': 96, 'Name': 'UFC 150', 'Attendance': 0}, {'id': 97, 'Name': 'UFC 149', 'Attendance': 0}, {'id': 98, 'Name': 'UFC 148', 'Attendance': 0}, {'id': 99, 'Name': 'UFC 147', 'Attendance': 0}, {'id': 100, 'Name': 'UFC 146', 'Attendance': 0}, {'id': 101, 'Name': 'UFC 145', 'Attendance': 0}, {'id': 102, 'Name': 'UFC 144', 'Attendance': 0}, {'id': 103, 'Name': 'UFC 143', 'Attendance': 0}, {'id': 104, 'Name': 'UFC 142', 'Attendance': 0}, {'id': 105, 'Name': 'UFC 141', 'Attendance': 0}, {'id': 106, 'Name': 'UFC 140', 'Attendance': 0}, {'id': 107, 'Name': 'UFC 139', 'Attendance': 0}, {'id': 108, 'Name': 'UFC 138', 'Attendance': 0}, {'id': 109, 'Name': 'UFC 137', 'Attendance': 0}, {'id': 110, 'Name': 'UFC 136', 'Attendance': 0}, {'id': 111, 'Name': 'UFC 135', 'Attendance': 0}, {'id': 112, 'Name': 'UFC 134', 'Attendance': 0}, {'id': 113, 'Name': 'UFC 133', 'Attendance': 0}, {'id': 114, 'Name': 'UFC 132', 'Attendance': 0}, {'id': 115, 'Name': 'UFC 131', 'Attendance': 0}, {'id': 116, 'Name': 'UFC 130', 'Attendance': 0}, {'id': 117, 'Name': 'UFC 129', 'Attendance': 0}, {'id': 118, 'Name': 'UFC 128', 'Attendance': 0}, {'id': 119, 'Name': 'UFC 127', 'Attendance': 0}, {'id': 120, 'Name': 'UFC 126', 'Attendance': 0}, {'id': 121, 'Name': 'UFC 125', 'Attendance': 0}, {'id': 122, 'Name': 'UFC 124', 'Attendance': 0}, {'id': 123, 'Name': 'UFC 123', 'Attendance': 0}, {'id': 124, 'Name': 'UFC 122', 'Attendance': 0}, {'id': 125, 'Name': 'UFC 121', 'Attendance': 0}, {'id': 126, 'Name': 'UFC 120', 'Attendance': 0}, {'id': 127, 'Name': 'UFC 119', 'Attendance': 0}, {'id': 128, 'Name': 'UFC 118', 'Attendance': 0}, {'id': 129, 'Name': 'UFC 117', 'Attendance': 0}, {'id': 130, 'Name': 'UFC 116', 'Attendance': 0}, {'id': 131, 'Name': 'UFC 115', 'Attendance': 0}, {'id': 132, 'Name': 'UFC 114', 'Attendance': 0}, {'id': 133, 'Name': 'UFC 113', 'Attendance': 0}, {'id': 134, 'Name': 'UFC 112', 'Attendance': 0}, {'id': 135, 'Name': 'UFC 111', 'Attendance': 0}, {'id': 136, 'Name': 'UFC 110', 'Attendance': 0}, {'id': 137, 'Name': 'UFC 109', 'Attendance': 0}, {'id': 138, 'Name': 'UFC 108', 'Attendance': 0}, {'id': 139, 'Name': 'UFC 107', 'Attendance': 0}, {'id': 140, 'Name': 'UFC 106', 'Attendance': 0}, {'id': 141, 'Name': 'UFC 105', 'Attendance': 0}, {'id': 142, 'Name': 'UFC 104', 'Attendance': 0}, {'id': 143, 'Name': 'UFC 103', 'Attendance': 0}, {'id': 144, 'Name': 'UFC 102', 'Attendance': 0}, {'id': 145, 'Name': 'UFC 101', 'Attendance': 0}, {'id': 146, 'Name': 'UFC 100', 'Attendance': 0}, {'id': 147, 'Name': 'UFC 99', 'Attendance': 0}, {'id': 148, 'Name': 'UFC 98', 'Attendance': 0}, {'id': 149, 'Name': 'UFC 97', 'Attendance': 0}, {'id': 150, 'Name': 'UFC 96', 'Attendance': 0}, {'id': 151, 'Name': 'UFC 95', 'Attendance': 0}, {'id': 152, 'Name': 'UFC 94', 'Attendance': 0}, {'id': 153, 'Name': 'UFC 93', 'Attendance': 0}, {'id': 154, 'Name': 'UFC 92', 'Attendance': 0}, {'id': 155, 'Name': 'UFC 91', 'Attendance': 0}, {'id': 156, 'Name': 'UFC 90', 'Attendance': 0}, {'id': 157, 'Name': 'UFC 89', 'Attendance': 0}, {'id': 158, 'Name': 'UFC 88', 'Attendance': 0}, {'id': 159, 'Name': 'UFC 87', 'Attendance': 0}, {'id': 160, 'Name': 'UFC 86', 'Attendance': 0}, {'id': 161, 'Name': 'UFC 85', 'Attendance': 0}, {'id': 162, 'Name': 'UFC 84', 'Attendance': 0}, {'id': 163, 'Name': 'UFC 83', 'Attendance': 0}, {'id': 164, 'Name': 'UFC 82', 'Attendance': 0}, {'id': 165, 'Name': 'UFC 81', 'Attendance': 0}, {'id': 166, 'Name': 'UFC 80', 'Attendance': 0}, {'id': 167, 'Name': 'UFC 79', 'Attendance': 0}, {'id': 168, 'Name': 'UFC 78', 'Attendance': 0}, {'id': 169, 'Name': 'UFC 77', 'Attendance': 0}, {'id': 170, 'Name': 'UFC 76', 'Attendance': 0}, {'id': 171, 'Name': 'UFC 75', 'Attendance': 0}, {'id': 172, 'Name': 'UFC 74', 'Attendance': 0}, {'id': 173, 'Name': 'UFC 73', 'Attendance': 0}, {'id': 174, 'Name': 'UFC 72', 'Attendance': 0}, {'id': 175, 'Name': 'UFC 71', 'Attendance': 0}, {'id': 176, 'Name': 'UFC 70', 'Attendance': 0}, {'id': 177, 'Name': 'UFC 69', 'Attendance': 0}, {'id': 178, 'Name': 'UFC 68', 'Attendance': 0}, {'id': 179, 'Name': 'UFC 67', 'Attendance': 0}, {'id': 180, 'Name': 'UFC 66', 'Attendance': 0}, {'id': 181, 'Name': 'UFC 65', 'Attendance': 0}, {'id': 182, 'Name': 'UFC 64', 'Attendance': 0}, {'id': 183, 'Name': 'UFC 63', 'Attendance': 0}, {'id': 184, 'Name': 'UFC 62', 'Attendance': 0}, {'id': 185, 'Name': 'UFC 61', 'Attendance': 0}, {'id': 186, 'Name': 'UFC 60', 'Attendance': 0}, {'id': 187, 'Name': 'UFC 59', 'Attendance': 0}, {'id': 188, 'Name': 'UFC 58', 'Attendance': 0}, {'id': 189, 'Name': 'UFC 57', 'Attendance': 0}, {'id': 190, 'Name': 'UFC 56', 'Attendance': 0}, {'id': 191, 'Name': 'UFC 55', 'Attendance': 0}, {'id': 192, 'Name': 'UFC 54', 'Attendance': 0}, {'id': 193, 'Name': 'UFC 53', 'Attendance': 0}, {'id': 194, 'Name': 'UFC 52', 'Attendance': 0}, {'id': 195, 'Name': 'UFC 51', 'Attendance': 0}, {'id': 196, 'Name': 'UFC 50', 'Attendance': 0}, {'id': 197, 'Name': 'UFC 49', 'Attendance': 0}, {'id': 198, 'Name': 'UFC 48', 'Attendance': 0}, {'id': 199, 'Name': 'UFC 47', 'Attendance': 0}, {'id': 200, 'Name': 'UFC 46', 'Attendance': 0}, {'id': 201, 'Name': 'UFC 45', 'Attendance': 0}, {'id': 202, 'Name': 'UFC 44', 'Attendance': 0}, {'id': 203, 'Name': 'UFC 43', 'Attendance': 0}, {'id': 204, 'Name': 'UFC 42', 'Attendance': 0}, {'id': 205, 'Name': 'UFC 41', 'Attendance': 0}, {'id': 206, 'Name': 'UFC 40', 'Attendance': 0}, {'id': 207, 'Name': 'UFC 39', 'Attendance': 0}, {'id': 208, 'Name': 'UFC 38', 'Attendance': 0}, {'id': 209, 'Name': 'UFC 37', 'Attendance': 0}, {'id': 210, 'Name': 'UFC 36', 'Attendance': 0}, {'id': 211, 'Name': 'UFC 35', 'Attendance': 0}, {'id': 212, 'Name': 'UFC 34', 'Attendance': 0}, {'id': 213, 'Name': 'UFC 33', 'Attendance': 0}, {'id': 214, 'Name': 'UFC 32', 'Attendance': 0}, {'id': 215, 'Name': 'UFC 31', 'Attendance': 0}, {'id': 216, 'Name': 'UFC 30', 'Attendance': 0}, {'id': 217, 'Name': 'UFC 29', 'Attendance': 0}, {'id': 218, 'Name': 'UFC 28', 'Attendance': 0}, {'id': 219, 'Name': 'UFC 27', 'Attendance': 0}, {'id': 220, 'Name': 'UFC 26', 'Attendance': 0}, {'id': 221, 'Name': 'UFC 25', 'Attendance': 0}, {'id': 222, 'Name': 'UFC 24', 'Attendance': 0}, {'id': 223, 'Name': 'UFC 23', 'Attendance': 0}, {'id': 224, 'Name': 'UFC 22', 'Attendance': 0}, {'id': 225, 'Name': 'UFC 21', 'Attendance': 0}, {'id': 226, 'Name': 'UFC 20', 'Attendance': 0}, {'id': 227, 'Name': 'UFC 19', 'Attendance': 0}, {'id': 228, 'Name': 'UFC 18', 'Attendance': 0}, {'id': 229, 'Name': 'UFC 17', 'Attendance': 0}, {'id': 230, 'Name': 'UFC 16', 'Attendance': 0}, {'id': 231, 'Name': 'UFC 15', 'Attendance': 0}, {'id': 232, 'Name': 'UFC 14', 'Attendance': 0}, {'id': 233, 'Name': 'UFC 13', 'Attendance': 0}, {'id': 234, 'Name': 'UFC 12', 'Attendance': 0}, {'id': 235, 'Name': 'UFC 11', 'Attendance': 0}, {'id': 236, 'Name': 'UFC 10', 'Attendance': 0}, {'id': 237, 'Name': 'UFC 9', 'Attendance': 0}, {'id': 238, 'Name': 'UFC 8', 'Attendance': 0}, {'id': 239, 'Name': 'UFC 7', 'Attendance': 0}, {'id': 240, 'Name': 'UFC 6', 'Attendance': 0}, {'id': 241, 'Name': 'UFC 5', 'Attendance': 0}, {'id': 242, 'Name': 'UFC 4', 'Attendance': 0}, {'id': 243, 'Name': 'UFC 3', 'Attendance': 0}, {'id': 244, 'Name': 'UFC 2', 'Attendance': 0}, {'id': 245, 'Name': 'UFC 1', 'Attendance': 0}]}, 200
[2020-01-12 20:22:36,026] INFO in card_user.py: GET: /card/3/user?
[2020-01-12 20:22:36,055] DEBUG in order_connector.py: Response from order: {'orders': [{'id': 3, 'user_id': 1, 'card_id': 34}, {'id': 4, 'user_id': 1, 'card_id': 3}, {'id': 5, 'user_id': 2, 'card_id': 11}, {'id': 6, 'user_id': 2, 'card_id': 3}, {'id': 7, 'user_id': 2, 'card_id': 4}]}, 200
[2020-01-12 20:22:36,076] DEBUG in user_connector.py: Response from user connector: {'users': [{'id': 1, 'username': 'Kizilov D.'}, {'id': 2, 'username': 'Michael Bale'}, {'id': 3, 'username': 'Rock'}, {'id': 4, 'username': 'Paper'}, {'id': 5, 'username': 'Scissors'}]}, 200
[2020-01-12 20:22:41,108] INFO in user.py: GET: /user?
[2020-01-12 20:22:41,122] DEBUG in user_connector.py: Response from user connector: {'users': [{'id': 1, 'username': 'Kizilov D.'}, {'id': 2, 'username': 'Michael Bale'}, {'id': 3, 'username': 'Rock'}, {'id': 4, 'username': 'Paper'}, {'id': 5, 'username': 'Scissors'}]}, 200
[2020-01-12 20:22:41,122] DEBUG in user.py: Response from servers: {'users': [{'id': 1, 'username': 'Kizilov D.'}, {'id': 2, 'username': 'Michael Bale'}, {'id': 3, 'username': 'Rock'}, {'id': 4, 'username': 'Paper'}, {'id': 5, 'username': 'Scissors'}]}, 200
[2020-01-12 20:22:48,258] INFO in order.py: GET: /user/1/order?
[2020-01-12 20:22:48,280] DEBUG in order_connector.py: Response from order: {'orders': [{'id': 3, 'user_id': 1, 'card_id': 34}, {'id': 4, 'user_id': 1, 'card_id': 3}]}, 200
[2020-01-12 20:22:48,281] DEBUG in order.py: Response from servers: {'orders': [{'id': 3, 'user_id': 1, 'card_id': 34}, {'id': 4, 'user_id': 1, 'card_id': 3}]}, 200
[2020-01-12 20:23:59,328] INFO in order.py: POST: /user/1/order?
[2020-01-12 20:23:59,375] DEBUG in card_connector.py: Response from order: {'message': 'card with id: 3 attendance updated'}, 200
[2020-01-12 20:23:59,381] DEBUG in order_connector.py: Response from order: {'message': 'Service ORDER is not available'}, 503
[2020-01-12 20:23:59,381] DEBUG in order.py: Response from card: {'message': 'Service ORDER is not available'}, 503
[2020-01-12 20:23:59,407] INFO in order.py: GET: /user/1/order?
[2020-01-12 20:23:59,417] DEBUG in order_connector.py: Response from order: {'message': 'Service CARD is not available'}, 503
[2020-01-12 20:23:59,418] DEBUG in order.py: Response from servers: {'message': 'Service CARD is not available'}, 503
[2020-01-12 20:24:16,205] INFO in card.py: GET: /card?
[2020-01-12 20:24:16,246] DEBUG in card.py: Response from cards: {'cards': [{'id': 3, 'Name': 'UFC 243', 'Attendance': 3}, {'id': 4, 'Name': 'UFC 242', 'Attendance': 1}, {'id': 5, 'Name': 'UFC 241', 'Attendance': 0}, {'id': 6, 'Name': 'UFC 240', 'Attendance': 0}, {'id': 7, 'Name': 'UFC 239', 'Attendance': 0}, {'id': 8, 'Name': 'UFC 238', 'Attendance': 0}, {'id': 9, 'Name': 'UFC 237', 'Attendance': 0}, {'id': 10, 'Name': 'UFC 236', 'Attendance': 0}, {'id': 11, 'Name': 'UFC 235', 'Attendance': 1}, {'id': 12, 'Name': 'UFC 234', 'Attendance': 0}, {'id': 13, 'Name': 'UFC 233', 'Attendance': 0}, {'id': 14, 'Name': 'UFC 232', 'Attendance': 0}, {'id': 15, 'Name': 'UFC 231', 'Attendance': 0}, {'id': 16, 'Name': 'UFC 230', 'Attendance': 0}, {'id': 17, 'Name': 'UFC 229', 'Attendance': 0}, {'id': 18, 'Name': 'UFC 228', 'Attendance': 0}, {'id': 19, 'Name': 'UFC 227', 'Attendance': 0}, {'id': 20, 'Name': 'UFC 226', 'Attendance': 0}, {'id': 21, 'Name': 'UFC 225', 'Attendance': 0}, {'id': 22, 'Name': 'UFC 224', 'Attendance': 0}, {'id': 23, 'Name': 'UFC 223', 'Attendance': 0}, {'id': 24, 'Name': 'UFC 222', 'Attendance': 0}, {'id': 25, 'Name': 'UFC 221', 'Attendance': 0}, {'id': 26, 'Name': 'UFC 220', 'Attendance': 0}, {'id': 27, 'Name': 'UFC 219', 'Attendance': 0}, {'id': 28, 'Name': 'UFC 218', 'Attendance': 0}, {'id': 29, 'Name': 'UFC 217', 'Attendance': 0}, {'id': 30, 'Name': 'UFC 216', 'Attendance': 0}, {'id': 31, 'Name': 'UFC 215', 'Attendance': 0}, {'id': 32, 'Name': 'UFC 214', 'Attendance': 0}, {'id': 33, 'Name': 'UFC 213', 'Attendance': 0}, {'id': 34, 'Name': 'UFC 212', 'Attendance': 1}, {'id': 35, 'Name': 'UFC 211', 'Attendance': 0}, {'id': 36, 'Name': 'UFC 210', 'Attendance': 0}, {'id': 37, 'Name': 'UFC 209', 'Attendance': 0}, {'id': 38, 'Name': 'UFC 208', 'Attendance': 0}, {'id': 39, 'Name': 'UFC 207', 'Attendance': 0}, {'id': 40, 'Name': 'UFC 206', 'Attendance': 0}, {'id': 41, 'Name': 'UFC 205', 'Attendance': 0}, {'id': 42, 'Name': 'UFC 204', 'Attendance': 0}, {'id': 43, 'Name': 'UFC 203', 'Attendance': 0}, {'id': 44, 'Name': 'UFC 202', 'Attendance': 0}, {'id': 45, 'Name': 'UFC 201', 'Attendance': 0}, {'id': 46, 'Name': 'UFC 200', 'Attendance': 0}, {'id': 47, 'Name': 'UFC 199', 'Attendance': 0}, {'id': 48, 'Name': 'UFC 198', 'Attendance': 0}, {'id': 49, 'Name': 'UFC 197', 'Attendance': 0}, {'id': 50, 'Name': 'UFC 196', 'Attendance': 0}, {'id': 51, 'Name': 'UFC 195', 'Attendance': 0}, {'id': 52, 'Name': 'UFC 194', 'Attendance': 0}, {'id': 53, 'Name': 'UFC 193', 'Attendance': 0}, {'id': 54, 'Name': 'UFC 192', 'Attendance': 0}, {'id': 55, 'Name': 'UFC 191', 'Attendance': 0}, {'id': 56, 'Name': 'UFC 190', 'Attendance': 0}, {'id': 57, 'Name': 'UFC 189', 'Attendance': 0}, {'id': 58, 'Name': 'UFC 188', 'Attendance': 0}, {'id': 59, 'Name': 'UFC 187', 'Attendance': 0}, {'id': 60, 'Name': 'UFC 186', 'Attendance': 0}, {'id': 61, 'Name': 'UFC 185', 'Attendance': 0}, {'id': 62, 'Name': 'UFC 184', 'Attendance': 0}, {'id': 63, 'Name': 'UFC 183', 'Attendance': 0}, {'id': 64, 'Name': 'UFC 182', 'Attendance': 0}, {'id': 65, 'Name': 'UFC 181', 'Attendance': 0}, {'id': 66, 'Name': 'UFC 180', 'Attendance': 0}, {'id': 67, 'Name': 'UFC 179', 'Attendance': 0}, {'id': 68, 'Name': 'UFC 178', 'Attendance': 0}, {'id': 69, 'Name': 'UFC 177', 'Attendance': 0}, {'id': 70, 'Name': 'UFC 176', 'Attendance': 0}, {'id': 71, 'Name': 'UFC 175', 'Attendance': 0}, {'id': 72, 'Name': 'UFC 174', 'Attendance': 0}, {'id': 73, 'Name': 'UFC 173', 'Attendance': 0}, {'id': 74, 'Name': 'UFC 172', 'Attendance': 0}, {'id': 75, 'Name': 'UFC 171', 'Attendance': 0}, {'id': 76, 'Name': 'UFC 170', 'Attendance': 0}, {'id': 77, 'Name': 'UFC 169', 'Attendance': 0}, {'id': 78, 'Name': 'UFC 168', 'Attendance': 0}, {'id': 79, 'Name': 'UFC 167', 'Attendance': 0}, {'id': 80, 'Name': 'UFC 166', 'Attendance': 0}, {'id': 81, 'Name': 'UFC 165', 'Attendance': 0}, {'id': 82, 'Name': 'UFC 164', 'Attendance': 0}, {'id': 83, 'Name': 'UFC 163', 'Attendance': 0}, {'id': 84, 'Name': 'UFC 162', 'Attendance': 0}, {'id': 85, 'Name': 'UFC 161', 'Attendance': 0}, {'id': 86, 'Name': 'UFC 160', 'Attendance': 0}, {'id': 87, 'Name': 'UFC 159', 'Attendance': 0}, {'id': 88, 'Name': 'UFC 158', 'Attendance': 0}, {'id': 89, 'Name': 'UFC 157', 'Attendance': 0}, {'id': 90, 'Name': 'UFC 156', 'Attendance': 0}, {'id': 91, 'Name': 'UFC 155', 'Attendance': 0}, {'id': 92, 'Name': 'UFC 154', 'Attendance': 0}, {'id': 93, 'Name': 'UFC 153', 'Attendance': 0}, {'id': 94, 'Name': 'UFC 152', 'Attendance': 0}, {'id': 95, 'Name': 'UFC 151', 'Attendance': 0}, {'id': 96, 'Name': 'UFC 150', 'Attendance': 0}, {'id': 97, 'Name': 'UFC 149', 'Attendance': 0}, {'id': 98, 'Name': 'UFC 148', 'Attendance': 0}, {'id': 99, 'Name': 'UFC 147', 'Attendance': 0}, {'id': 100, 'Name': 'UFC 146', 'Attendance': 0}, {'id': 101, 'Name': 'UFC 145', 'Attendance': 0}, {'id': 102, 'Name': 'UFC 144', 'Attendance': 0}, {'id': 103, 'Name': 'UFC 143', 'Attendance': 0}, {'id': 104, 'Name': 'UFC 142', 'Attendance': 0}, {'id': 105, 'Name': 'UFC 141', 'Attendance': 0}, {'id': 106, 'Name': 'UFC 140', 'Attendance': 0}, {'id': 107, 'Name': 'UFC 139', 'Attendance': 0}, {'id': 108, 'Name': 'UFC 138', 'Attendance': 0}, {'id': 109, 'Name': 'UFC 137', 'Attendance': 0}, {'id': 110, 'Name': 'UFC 136', 'Attendance': 0}, {'id': 111, 'Name': 'UFC 135', 'Attendance': 0}, {'id': 112, 'Name': 'UFC 134', 'Attendance': 0}, {'id': 113, 'Name': 'UFC 133', 'Attendance': 0}, {'id': 114, 'Name': 'UFC 132', 'Attendance': 0}, {'id': 115, 'Name': 'UFC 131', 'Attendance': 0}, {'id': 116, 'Name': 'UFC 130', 'Attendance': 0}, {'id': 117, 'Name': 'UFC 129', 'Attendance': 0}, {'id': 118, 'Name': 'UFC 128', 'Attendance': 0}, {'id': 119, 'Name': 'UFC 127', 'Attendance': 0}, {'id': 120, 'Name': 'UFC 126', 'Attendance': 0}, {'id': 121, 'Name': 'UFC 125', 'Attendance': 0}, {'id': 122, 'Name': 'UFC 124', 'Attendance': 0}, {'id': 123, 'Name': 'UFC 123', 'Attendance': 0}, {'id': 124, 'Name': 'UFC 122', 'Attendance': 0}, {'id': 125, 'Name': 'UFC 121', 'Attendance': 0}, {'id': 126, 'Name': 'UFC 120', 'Attendance': 0}, {'id': 127, 'Name': 'UFC 119', 'Attendance': 0}, {'id': 128, 'Name': 'UFC 118', 'Attendance': 0}, {'id': 129, 'Name': 'UFC 117', 'Attendance': 0}, {'id': 130, 'Name': 'UFC 116', 'Attendance': 0}, {'id': 131, 'Name': 'UFC 115', 'Attendance': 0}, {'id': 132, 'Name': 'UFC 114', 'Attendance': 0}, {'id': 133, 'Name': 'UFC 113', 'Attendance': 0}, {'id': 134, 'Name': 'UFC 112', 'Attendance': 0}, {'id': 135, 'Name': 'UFC 111', 'Attendance': 0}, {'id': 136, 'Name': 'UFC 110', 'Attendance': 0}, {'id': 137, 'Name': 'UFC 109', 'Attendance': 0}, {'id': 138, 'Name': 'UFC 108', 'Attendance': 0}, {'id': 139, 'Name': 'UFC 107', 'Attendance': 0}, {'id': 140, 'Name': 'UFC 106', 'Attendance': 0}, {'id': 141, 'Name': 'UFC 105', 'Attendance': 0}, {'id': 142, 'Name': 'UFC 104', 'Attendance': 0}, {'id': 143, 'Name': 'UFC 103', 'Attendance': 0}, {'id': 144, 'Name': 'UFC 102', 'Attendance': 0}, {'id': 145, 'Name': 'UFC 101', 'Attendance': 0}, {'id': 146, 'Name': 'UFC 100', 'Attendance': 0}, {'id': 147, 'Name': 'UFC 99', 'Attendance': 0}, {'id': 148, 'Name': 'UFC 98', 'Attendance': 0}, {'id': 149, 'Name': 'UFC 97', 'Attendance': 0}, {'id': 150, 'Name': 'UFC 96', 'Attendance': 0}, {'id': 151, 'Name': 'UFC 95', 'Attendance': 0}, {'id': 152, 'Name': 'UFC 94', 'Attendance': 0}, {'id': 153, 'Name': 'UFC 93', 'Attendance': 0}, {'id': 154, 'Name': 'UFC 92', 'Attendance': 0}, {'id': 155, 'Name': 'UFC 91', 'Attendance': 0}, {'id': 156, 'Name': 'UFC 90', 'Attendance': 0}, {'id': 157, 'Name': 'UFC 89', 'Attendance': 0}, {'id': 158, 'Name': 'UFC 88', 'Attendance': 0}, {'id': 159, 'Name': 'UFC 87', 'Attendance': 0}, {'id': 160, 'Name': 'UFC 86', 'Attendance': 0}, {'id': 161, 'Name': 'UFC 85', 'Attendance': 0}, {'id': 162, 'Name': 'UFC 84', 'Attendance': 0}, {'id': 163, 'Name': 'UFC 83', 'Attendance': 0}, {'id': 164, 'Name': 'UFC 82', 'Attendance': 0}, {'id': 165, 'Name': 'UFC 81', 'Attendance': 0}, {'id': 166, 'Name': 'UFC 80', 'Attendance': 0}, {'id': 167, 'Name': 'UFC 79', 'Attendance': 0}, {'id': 168, 'Name': 'UFC 78', 'Attendance': 0}, {'id': 169, 'Name': 'UFC 77', 'Attendance': 0}, {'id': 170, 'Name': 'UFC 76', 'Attendance': 0}, {'id': 171, 'Name': 'UFC 75', 'Attendance': 0}, {'id': 172, 'Name': 'UFC 74', 'Attendance': 0}, {'id': 173, 'Name': 'UFC 73', 'Attendance': 0}, {'id': 174, 'Name': 'UFC 72', 'Attendance': 0}, {'id': 175, 'Name': 'UFC 71', 'Attendance': 0}, {'id': 176, 'Name': 'UFC 70', 'Attendance': 0}, {'id': 177, 'Name': 'UFC 69', 'Attendance': 0}, {'id': 178, 'Name': 'UFC 68', 'Attendance': 0}, {'id': 179, 'Name': 'UFC 67', 'Attendance': 0}, {'id': 180, 'Name': 'UFC 66', 'Attendance': 0}, {'id': 181, 'Name': 'UFC 65', 'Attendance': 0}, {'id': 182, 'Name': 'UFC 64', 'Attendance': 0}, {'id': 183, 'Name': 'UFC 63', 'Attendance': 0}, {'id': 184, 'Name': 'UFC 62', 'Attendance': 0}, {'id': 185, 'Name': 'UFC 61', 'Attendance': 0}, {'id': 186, 'Name': 'UFC 60', 'Attendance': 0}, {'id': 187, 'Name': 'UFC 59', 'Attendance': 0}, {'id': 188, 'Name': 'UFC 58', 'Attendance': 0}, {'id': 189, 'Name': 'UFC 57', 'Attendance': 0}, {'id': 190, 'Name': 'UFC 56', 'Attendance': 0}, {'id': 191, 'Name': 'UFC 55', 'Attendance': 0}, {'id': 192, 'Name': 'UFC 54', 'Attendance': 0}, {'id': 193, 'Name': 'UFC 53', 'Attendance': 0}, {'id': 194, 'Name': 'UFC 52', 'Attendance': 0}, {'id': 195, 'Name': 'UFC 51', 'Attendance': 0}, {'id': 196, 'Name': 'UFC 50', 'Attendance': 0}, {'id': 197, 'Name': 'UFC 49', 'Attendance': 0}, {'id': 198, 'Name': 'UFC 48', 'Attendance': 0}, {'id': 199, 'Name': 'UFC 47', 'Attendance': 0}, {'id': 200, 'Name': 'UFC 46', 'Attendance': 0}, {'id': 201, 'Name': 'UFC 45', 'Attendance': 0}, {'id': 202, 'Name': 'UFC 44', 'Attendance': 0}, {'id': 203, 'Name': 'UFC 43', 'Attendance': 0}, {'id': 204, 'Name': 'UFC 42', 'Attendance': 0}, {'id': 205, 'Name': 'UFC 41', 'Attendance': 0}, {'id': 206, 'Name': 'UFC 40', 'Attendance': 0}, {'id': 207, 'Name': 'UFC 39', 'Attendance': 0}, {'id': 208, 'Name': 'UFC 38', 'Attendance': 0}, {'id': 209, 'Name': 'UFC 37', 'Attendance': 0}, {'id': 210, 'Name': 'UFC 36', 'Attendance': 0}, {'id': 211, 'Name': 'UFC 35', 'Attendance': 0}, {'id': 212, 'Name': 'UFC 34', 'Attendance': 0}, {'id': 213, 'Name': 'UFC 33', 'Attendance': 0}, {'id': 214, 'Name': 'UFC 32', 'Attendance': 0}, {'id': 215, 'Name': 'UFC 31', 'Attendance': 0}, {'id': 216, 'Name': 'UFC 30', 'Attendance': 0}, {'id': 217, 'Name': 'UFC 29', 'Attendance': 0}, {'id': 218, 'Name': 'UFC 28', 'Attendance': 0}, {'id': 219, 'Name': 'UFC 27', 'Attendance': 0}, {'id': 220, 'Name': 'UFC 26', 'Attendance': 0}, {'id': 221, 'Name': 'UFC 25', 'Attendance': 0}, {'id': 222, 'Name': 'UFC 24', 'Attendance': 0}, {'id': 223, 'Name': 'UFC 23', 'Attendance': 0}, {'id': 224, 'Name': 'UFC 22', 'Attendance': 0}, {'id': 225, 'Name': 'UFC 21', 'Attendance': 0}, {'id': 226, 'Name': 'UFC 20', 'Attendance': 0}, {'id': 227, 'Name': 'UFC 19', 'Attendance': 0}, {'id': 228, 'Name': 'UFC 18', 'Attendance': 0}, {'id': 229, 'Name': 'UFC 17', 'Attendance': 0}, {'id': 230, 'Name': 'UFC 16', 'Attendance': 0}, {'id': 231, 'Name': 'UFC 15', 'Attendance': 0}, {'id': 232, 'Name': 'UFC 14', 'Attendance': 0}, {'id': 233, 'Name': 'UFC 13', 'Attendance': 0}, {'id': 234, 'Name': 'UFC 12', 'Attendance': 0}, {'id': 235, 'Name': 'UFC 11', 'Attendance': 0}, {'id': 236, 'Name': 'UFC 10', 'Attendance': 0}, {'id': 237, 'Name': 'UFC 9', 'Attendance': 0}, {'id': 238, 'Name': 'UFC 8', 'Attendance': 0}, {'id': 239, 'Name': 'UFC 7', 'Attendance': 0}, {'id': 240, 'Name': 'UFC 6', 'Attendance': 0}, {'id': 241, 'Name': 'UFC 5', 'Attendance': 0}, {'id': 242, 'Name': 'UFC 4', 'Attendance': 0}, {'id': 243, 'Name': 'UFC 3', 'Attendance': 0}, {'id': 244, 'Name': 'UFC 2', 'Attendance': 0}, {'id': 245, 'Name': 'UFC 1', 'Attendance': 0}]}, 200
[2020-01-12 20:24:19,113] INFO in card_user.py: GET: /card/3/user?
[2020-01-12 20:24:19,124] DEBUG in order_connector.py: Response from order: {'message': 'Service ORDER is not available'}, 503
[2020-01-12 20:24:35,185] INFO in card_user.py: GET: /card/3/user?
[2020-01-12 20:24:35,213] DEBUG in order_connector.py: Response from order: {'orders': [{'id': 3, 'user_id': 1, 'card_id': 34}, {'id': 4, 'user_id': 1, 'card_id': 3}, {'id': 5, 'user_id': 2, 'card_id': 11}, {'id': 6, 'user_id': 2, 'card_id': 3}, {'id': 7, 'user_id': 2, 'card_id': 4}]}, 200
[2020-01-12 20:24:35,269] DEBUG in user_connector.py: Response from user connector: {'users': [{'id': 1, 'username': 'Kizilov D.'}, {'id': 2, 'username': 'Michael Bale'}, {'id': 3, 'username': 'Rock'}, {'id': 4, 'username': 'Paper'}, {'id': 5, 'username': 'Scissors'}]}, 200
[2020-01-12 20:26:07,582] INFO in card_user.py: GET: /card/5/user?
[2020-01-12 20:26:07,620] DEBUG in order_connector.py: Response from order: {'orders': [{'id': 3, 'user_id': 1, 'card_id': 34}, {'id': 4, 'user_id': 1, 'card_id': 3}, {'id': 5, 'user_id': 2, 'card_id': 11}, {'id': 6, 'user_id': 2, 'card_id': 3}, {'id': 7, 'user_id': 2, 'card_id': 4}]}, 200
[2020-01-12 20:26:07,638] DEBUG in user_connector.py: Response from user connector: {'users': [{'id': 1, 'username': 'Kizilov D.'}, {'id': 2, 'username': 'Michael Bale'}, {'id': 3, 'username': 'Rock'}, {'id': 4, 'username': 'Paper'}, {'id': 5, 'username': 'Scissors'}]}, 200
[2020-01-12 20:26:10,790] INFO in user.py: GET: /user?
[2020-01-12 20:26:10,810] DEBUG in user_connector.py: Response from user connector: {'users': [{'id': 1, 'username': 'Kizilov D.'}, {'id': 2, 'username': 'Michael Bale'}, {'id': 3, 'username': 'Rock'}, {'id': 4, 'username': 'Paper'}, {'id': 5, 'username': 'Scissors'}]}, 200
[2020-01-12 20:26:10,810] DEBUG in user.py: Response from servers: {'users': [{'id': 1, 'username': 'Kizilov D.'}, {'id': 2, 'username': 'Michael Bale'}, {'id': 3, 'username': 'Rock'}, {'id': 4, 'username': 'Paper'}, {'id': 5, 'username': 'Scissors'}]}, 200
[2020-01-12 20:26:13,199] INFO in order.py: GET: /user/3/order?
[2020-01-12 20:26:13,215] DEBUG in order_connector.py: Response from order: {'orders': []}, 200
[2020-01-12 20:26:13,216] DEBUG in order.py: Response from servers: {'orders': []}, 200
[2020-01-12 20:26:22,785] INFO in order.py: POST: /user/3/order?
[2020-01-12 20:26:22,861] DEBUG in card_connector.py: Response from order: {'message': 'card with id: 5 attendance updated'}, 200
[2020-01-12 20:26:22,868] DEBUG in order_connector.py: Response from order: {'message': 'Service ORDER is not available'}, 503
[2020-01-12 20:26:22,905] DEBUG in card_connector.py: Response from order: {'message': 'card with id: 5 attendance updated'}, 200
[2020-01-12 20:26:22,906] DEBUG in order.py: Response from card: {'message': 'Service ORDER is not available'}, 503
[2020-01-12 20:26:22,944] INFO in order.py: GET: /user/3/order?
[2020-01-12 20:26:22,953] DEBUG in order_connector.py: Response from order: {'message': 'Service CARD is not available'}, 503
[2020-01-12 20:26:22,954] DEBUG in order.py: Response from servers: {'message': 'Service CARD is not available'}, 503
[2020-01-12 20:26:26,907] INFO in card.py: GET: /card?
[2020-01-12 20:26:26,946] DEBUG in card.py: Response from cards: {'cards': [{'id': 3, 'Name': 'UFC 243', 'Attendance': 3}, {'id': 4, 'Name': 'UFC 242', 'Attendance': 1}, {'id': 5, 'Name': 'UFC 241', 'Attendance': 0}, {'id': 6, 'Name': 'UFC 240', 'Attendance': 0}, {'id': 7, 'Name': 'UFC 239', 'Attendance': 0}, {'id': 8, 'Name': 'UFC 238', 'Attendance': 0}, {'id': 9, 'Name': 'UFC 237', 'Attendance': 0}, {'id': 10, 'Name': 'UFC 236', 'Attendance': 0}, {'id': 11, 'Name': 'UFC 235', 'Attendance': 1}, {'id': 12, 'Name': 'UFC 234', 'Attendance': 0}, {'id': 13, 'Name': 'UFC 233', 'Attendance': 0}, {'id': 14, 'Name': 'UFC 232', 'Attendance': 0}, {'id': 15, 'Name': 'UFC 231', 'Attendance': 0}, {'id': 16, 'Name': 'UFC 230', 'Attendance': 0}, {'id': 17, 'Name': 'UFC 229', 'Attendance': 0}, {'id': 18, 'Name': 'UFC 228', 'Attendance': 0}, {'id': 19, 'Name': 'UFC 227', 'Attendance': 0}, {'id': 20, 'Name': 'UFC 226', 'Attendance': 0}, {'id': 21, 'Name': 'UFC 225', 'Attendance': 0}, {'id': 22, 'Name': 'UFC 224', 'Attendance': 0}, {'id': 23, 'Name': 'UFC 223', 'Attendance': 0}, {'id': 24, 'Name': 'UFC 222', 'Attendance': 0}, {'id': 25, 'Name': 'UFC 221', 'Attendance': 0}, {'id': 26, 'Name': 'UFC 220', 'Attendance': 0}, {'id': 27, 'Name': 'UFC 219', 'Attendance': 0}, {'id': 28, 'Name': 'UFC 218', 'Attendance': 0}, {'id': 29, 'Name': 'UFC 217', 'Attendance': 0}, {'id': 30, 'Name': 'UFC 216', 'Attendance': 0}, {'id': 31, 'Name': 'UFC 215', 'Attendance': 0}, {'id': 32, 'Name': 'UFC 214', 'Attendance': 0}, {'id': 33, 'Name': 'UFC 213', 'Attendance': 0}, {'id': 34, 'Name': 'UFC 212', 'Attendance': 1}, {'id': 35, 'Name': 'UFC 211', 'Attendance': 0}, {'id': 36, 'Name': 'UFC 210', 'Attendance': 0}, {'id': 37, 'Name': 'UFC 209', 'Attendance': 0}, {'id': 38, 'Name': 'UFC 208', 'Attendance': 0}, {'id': 39, 'Name': 'UFC 207', 'Attendance': 0}, {'id': 40, 'Name': 'UFC 206', 'Attendance': 0}, {'id': 41, 'Name': 'UFC 205', 'Attendance': 0}, {'id': 42, 'Name': 'UFC 204', 'Attendance': 0}, {'id': 43, 'Name': 'UFC 203', 'Attendance': 0}, {'id': 44, 'Name': 'UFC 202', 'Attendance': 0}, {'id': 45, 'Name': 'UFC 201', 'Attendance': 0}, {'id': 46, 'Name': 'UFC 200', 'Attendance': 0}, {'id': 47, 'Name': 'UFC 199', 'Attendance': 0}, {'id': 48, 'Name': 'UFC 198', 'Attendance': 0}, {'id': 49, 'Name': 'UFC 197', 'Attendance': 0}, {'id': 50, 'Name': 'UFC 196', 'Attendance': 0}, {'id': 51, 'Name': 'UFC 195', 'Attendance': 0}, {'id': 52, 'Name': 'UFC 194', 'Attendance': 0}, {'id': 53, 'Name': 'UFC 193', 'Attendance': 0}, {'id': 54, 'Name': 'UFC 192', 'Attendance': 0}, {'id': 55, 'Name': 'UFC 191', 'Attendance': 0}, {'id': 56, 'Name': 'UFC 190', 'Attendance': 0}, {'id': 57, 'Name': 'UFC 189', 'Attendance': 0}, {'id': 58, 'Name': 'UFC 188', 'Attendance': 0}, {'id': 59, 'Name': 'UFC 187', 'Attendance': 0}, {'id': 60, 'Name': 'UFC 186', 'Attendance': 0}, {'id': 61, 'Name': 'UFC 185', 'Attendance': 0}, {'id': 62, 'Name': 'UFC 184', 'Attendance': 0}, {'id': 63, 'Name': 'UFC 183', 'Attendance': 0}, {'id': 64, 'Name': 'UFC 182', 'Attendance': 0}, {'id': 65, 'Name': 'UFC 181', 'Attendance': 0}, {'id': 66, 'Name': 'UFC 180', 'Attendance': 0}, {'id': 67, 'Name': 'UFC 179', 'Attendance': 0}, {'id': 68, 'Name': 'UFC 178', 'Attendance': 0}, {'id': 69, 'Name': 'UFC 177', 'Attendance': 0}, {'id': 70, 'Name': 'UFC 176', 'Attendance': 0}, {'id': 71, 'Name': 'UFC 175', 'Attendance': 0}, {'id': 72, 'Name': 'UFC 174', 'Attendance': 0}, {'id': 73, 'Name': 'UFC 173', 'Attendance': 0}, {'id': 74, 'Name': 'UFC 172', 'Attendance': 0}, {'id': 75, 'Name': 'UFC 171', 'Attendance': 0}, {'id': 76, 'Name': 'UFC 170', 'Attendance': 0}, {'id': 77, 'Name': 'UFC 169', 'Attendance': 0}, {'id': 78, 'Name': 'UFC 168', 'Attendance': 0}, {'id': 79, 'Name': 'UFC 167', 'Attendance': 0}, {'id': 80, 'Name': 'UFC 166', 'Attendance': 0}, {'id': 81, 'Name': 'UFC 165', 'Attendance': 0}, {'id': 82, 'Name': 'UFC 164', 'Attendance': 0}, {'id': 83, 'Name': 'UFC 163', 'Attendance': 0}, {'id': 84, 'Name': 'UFC 162', 'Attendance': 0}, {'id': 85, 'Name': 'UFC 161', 'Attendance': 0}, {'id': 86, 'Name': 'UFC 160', 'Attendance': 0}, {'id': 87, 'Name': 'UFC 159', 'Attendance': 0}, {'id': 88, 'Name': 'UFC 158', 'Attendance': 0}, {'id': 89, 'Name': 'UFC 157', 'Attendance': 0}, {'id': 90, 'Name': 'UFC 156', 'Attendance': 0}, {'id': 91, 'Name': 'UFC 155', 'Attendance': 0}, {'id': 92, 'Name': 'UFC 154', 'Attendance': 0}, {'id': 93, 'Name': 'UFC 153', 'Attendance': 0}, {'id': 94, 'Name': 'UFC 152', 'Attendance': 0}, {'id': 95, 'Name': 'UFC 151', 'Attendance': 0}, {'id': 96, 'Name': 'UFC 150', 'Attendance': 0}, {'id': 97, 'Name': 'UFC 149', 'Attendance': 0}, {'id': 98, 'Name': 'UFC 148', 'Attendance': 0}, {'id': 99, 'Name': 'UFC 147', 'Attendance': 0}, {'id': 100, 'Name': 'UFC 146', 'Attendance': 0}, {'id': 101, 'Name': 'UFC 145', 'Attendance': 0}, {'id': 102, 'Name': 'UFC 144', 'Attendance': 0}, {'id': 103, 'Name': 'UFC 143', 'Attendance': 0}, {'id': 104, 'Name': 'UFC 142', 'Attendance': 0}, {'id': 105, 'Name': 'UFC 141', 'Attendance': 0}, {'id': 106, 'Name': 'UFC 140', 'Attendance': 0}, {'id': 107, 'Name': 'UFC 139', 'Attendance': 0}, {'id': 108, 'Name': 'UFC 138', 'Attendance': 0}, {'id': 109, 'Name': 'UFC 137', 'Attendance': 0}, {'id': 110, 'Name': 'UFC 136', 'Attendance': 0}, {'id': 111, 'Name': 'UFC 135', 'Attendance': 0}, {'id': 112, 'Name': 'UFC 134', 'Attendance': 0}, {'id': 113, 'Name': 'UFC 133', 'Attendance': 0}, {'id': 114, 'Name': 'UFC 132', 'Attendance': 0}, {'id': 115, 'Name': 'UFC 131', 'Attendance': 0}, {'id': 116, 'Name': 'UFC 130', 'Attendance': 0}, {'id': 117, 'Name': 'UFC 129', 'Attendance': 0}, {'id': 118, 'Name': 'UFC 128', 'Attendance': 0}, {'id': 119, 'Name': 'UFC 127', 'Attendance': 0}, {'id': 120, 'Name': 'UFC 126', 'Attendance': 0}, {'id': 121, 'Name': 'UFC 125', 'Attendance': 0}, {'id': 122, 'Name': 'UFC 124', 'Attendance': 0}, {'id': 123, 'Name': 'UFC 123', 'Attendance': 0}, {'id': 124, 'Name': 'UFC 122', 'Attendance': 0}, {'id': 125, 'Name': 'UFC 121', 'Attendance': 0}, {'id': 126, 'Name': 'UFC 120', 'Attendance': 0}, {'id': 127, 'Name': 'UFC 119', 'Attendance': 0}, {'id': 128, 'Name': 'UFC 118', 'Attendance': 0}, {'id': 129, 'Name': 'UFC 117', 'Attendance': 0}, {'id': 130, 'Name': 'UFC 116', 'Attendance': 0}, {'id': 131, 'Name': 'UFC 115', 'Attendance': 0}, {'id': 132, 'Name': 'UFC 114', 'Attendance': 0}, {'id': 133, 'Name': 'UFC 113', 'Attendance': 0}, {'id': 134, 'Name': 'UFC 112', 'Attendance': 0}, {'id': 135, 'Name': 'UFC 111', 'Attendance': 0}, {'id': 136, 'Name': 'UFC 110', 'Attendance': 0}, {'id': 137, 'Name': 'UFC 109', 'Attendance': 0}, {'id': 138, 'Name': 'UFC 108', 'Attendance': 0}, {'id': 139, 'Name': 'UFC 107', 'Attendance': 0}, {'id': 140, 'Name': 'UFC 106', 'Attendance': 0}, {'id': 141, 'Name': 'UFC 105', 'Attendance': 0}, {'id': 142, 'Name': 'UFC 104', 'Attendance': 0}, {'id': 143, 'Name': 'UFC 103', 'Attendance': 0}, {'id': 144, 'Name': 'UFC 102', 'Attendance': 0}, {'id': 145, 'Name': 'UFC 101', 'Attendance': 0}, {'id': 146, 'Name': 'UFC 100', 'Attendance': 0}, {'id': 147, 'Name': 'UFC 99', 'Attendance': 0}, {'id': 148, 'Name': 'UFC 98', 'Attendance': 0}, {'id': 149, 'Name': 'UFC 97', 'Attendance': 0}, {'id': 150, 'Name': 'UFC 96', 'Attendance': 0}, {'id': 151, 'Name': 'UFC 95', 'Attendance': 0}, {'id': 152, 'Name': 'UFC 94', 'Attendance': 0}, {'id': 153, 'Name': 'UFC 93', 'Attendance': 0}, {'id': 154, 'Name': 'UFC 92', 'Attendance': 0}, {'id': 155, 'Name': 'UFC 91', 'Attendance': 0}, {'id': 156, 'Name': 'UFC 90', 'Attendance': 0}, {'id': 157, 'Name': 'UFC 89', 'Attendance': 0}, {'id': 158, 'Name': 'UFC 88', 'Attendance': 0}, {'id': 159, 'Name': 'UFC 87', 'Attendance': 0}, {'id': 160, 'Name': 'UFC 86', 'Attendance': 0}, {'id': 161, 'Name': 'UFC 85', 'Attendance': 0}, {'id': 162, 'Name': 'UFC 84', 'Attendance': 0}, {'id': 163, 'Name': 'UFC 83', 'Attendance': 0}, {'id': 164, 'Name': 'UFC 82', 'Attendance': 0}, {'id': 165, 'Name': 'UFC 81', 'Attendance': 0}, {'id': 166, 'Name': 'UFC 80', 'Attendance': 0}, {'id': 167, 'Name': 'UFC 79', 'Attendance': 0}, {'id': 168, 'Name': 'UFC 78', 'Attendance': 0}, {'id': 169, 'Name': 'UFC 77', 'Attendance': 0}, {'id': 170, 'Name': 'UFC 76', 'Attendance': 0}, {'id': 171, 'Name': 'UFC 75', 'Attendance': 0}, {'id': 172, 'Name': 'UFC 74', 'Attendance': 0}, {'id': 173, 'Name': 'UFC 73', 'Attendance': 0}, {'id': 174, 'Name': 'UFC 72', 'Attendance': 0}, {'id': 175, 'Name': 'UFC 71', 'Attendance': 0}, {'id': 176, 'Name': 'UFC 70', 'Attendance': 0}, {'id': 177, 'Name': 'UFC 69', 'Attendance': 0}, {'id': 178, 'Name': 'UFC 68', 'Attendance': 0}, {'id': 179, 'Name': 'UFC 67', 'Attendance': 0}, {'id': 180, 'Name': 'UFC 66', 'Attendance': 0}, {'id': 181, 'Name': 'UFC 65', 'Attendance': 0}, {'id': 182, 'Name': 'UFC 64', 'Attendance': 0}, {'id': 183, 'Name': 'UFC 63', 'Attendance': 0}, {'id': 184, 'Name': 'UFC 62', 'Attendance': 0}, {'id': 185, 'Name': 'UFC 61', 'Attendance': 0}, {'id': 186, 'Name': 'UFC 60', 'Attendance': 0}, {'id': 187, 'Name': 'UFC 59', 'Attendance': 0}, {'id': 188, 'Name': 'UFC 58', 'Attendance': 0}, {'id': 189, 'Name': 'UFC 57', 'Attendance': 0}, {'id': 190, 'Name': 'UFC 56', 'Attendance': 0}, {'id': 191, 'Name': 'UFC 55', 'Attendance': 0}, {'id': 192, 'Name': 'UFC 54', 'Attendance': 0}, {'id': 193, 'Name': 'UFC 53', 'Attendance': 0}, {'id': 194, 'Name': 'UFC 52', 'Attendance': 0}, {'id': 195, 'Name': 'UFC 51', 'Attendance': 0}, {'id': 196, 'Name': 'UFC 50', 'Attendance': 0}, {'id': 197, 'Name': 'UFC 49', 'Attendance': 0}, {'id': 198, 'Name': 'UFC 48', 'Attendance': 0}, {'id': 199, 'Name': 'UFC 47', 'Attendance': 0}, {'id': 200, 'Name': 'UFC 46', 'Attendance': 0}, {'id': 201, 'Name': 'UFC 45', 'Attendance': 0}, {'id': 202, 'Name': 'UFC 44', 'Attendance': 0}, {'id': 203, 'Name': 'UFC 43', 'Attendance': 0}, {'id': 204, 'Name': 'UFC 42', 'Attendance': 0}, {'id': 205, 'Name': 'UFC 41', 'Attendance': 0}, {'id': 206, 'Name': 'UFC 40', 'Attendance': 0}, {'id': 207, 'Name': 'UFC 39', 'Attendance': 0}, {'id': 208, 'Name': 'UFC 38', 'Attendance': 0}, {'id': 209, 'Name': 'UFC 37', 'Attendance': 0}, {'id': 210, 'Name': 'UFC 36', 'Attendance': 0}, {'id': 211, 'Name': 'UFC 35', 'Attendance': 0}, {'id': 212, 'Name': 'UFC 34', 'Attendance': 0}, {'id': 213, 'Name': 'UFC 33', 'Attendance': 0}, {'id': 214, 'Name': 'UFC 32', 'Attendance': 0}, {'id': 215, 'Name': 'UFC 31', 'Attendance': 0}, {'id': 216, 'Name': 'UFC 30', 'Attendance': 0}, {'id': 217, 'Name': 'UFC 29', 'Attendance': 0}, {'id': 218, 'Name': 'UFC 28', 'Attendance': 0}, {'id': 219, 'Name': 'UFC 27', 'Attendance': 0}, {'id': 220, 'Name': 'UFC 26', 'Attendance': 0}, {'id': 221, 'Name': 'UFC 25', 'Attendance': 0}, {'id': 222, 'Name': 'UFC 24', 'Attendance': 0}, {'id': 223, 'Name': 'UFC 23', 'Attendance': 0}, {'id': 224, 'Name': 'UFC 22', 'Attendance': 0}, {'id': 225, 'Name': 'UFC 21', 'Attendance': 0}, {'id': 226, 'Name': 'UFC 20', 'Attendance': 0}, {'id': 227, 'Name': 'UFC 19', 'Attendance': 0}, {'id': 228, 'Name': 'UFC 18', 'Attendance': 0}, {'id': 229, 'Name': 'UFC 17', 'Attendance': 0}, {'id': 230, 'Name': 'UFC 16', 'Attendance': 0}, {'id': 231, 'Name': 'UFC 15', 'Attendance': 0}, {'id': 232, 'Name': 'UFC 14', 'Attendance': 0}, {'id': 233, 'Name': 'UFC 13', 'Attendance': 0}, {'id': 234, 'Name': 'UFC 12', 'Attendance': 0}, {'id': 235, 'Name': 'UFC 11', 'Attendance': 0}, {'id': 236, 'Name': 'UFC 10', 'Attendance': 0}, {'id': 237, 'Name': 'UFC 9', 'Attendance': 0}, {'id': 238, 'Name': 'UFC 8', 'Attendance': 0}, {'id': 239, 'Name': 'UFC 7', 'Attendance': 0}, {'id': 240, 'Name': 'UFC 6', 'Attendance': 0}, {'id': 241, 'Name': 'UFC 5', 'Attendance': 0}, {'id': 242, 'Name': 'UFC 4', 'Attendance': 0}, {'id': 243, 'Name': 'UFC 3', 'Attendance': 0}, {'id': 244, 'Name': 'UFC 2', 'Attendance': 0}, {'id': 245, 'Name': 'UFC 1', 'Attendance': 0}]}, 200
[2020-01-12 20:26:42,873] INFO in user.py: GET: /user?
[2020-01-12 20:26:42,901] DEBUG in user_connector.py: Response from user connector: {'users': [{'id': 1, 'username': 'Kizilov D.'}, {'id': 2, 'username': 'Michael Bale'}, {'id': 3, 'username': 'Rock'}, {'id': 4, 'username': 'Paper'}, {'id': 5, 'username': 'Scissors'}]}, 200
[2020-01-12 20:26:42,903] DEBUG in user.py: Response from servers: {'users': [{'id': 1, 'username': 'Kizilov D.'}, {'id': 2, 'username': 'Michael Bale'}, {'id': 3, 'username': 'Rock'}, {'id': 4, 'username': 'Paper'}, {'id': 5, 'username': 'Scissors'}]}, 200
[2020-01-12 20:26:44,564] INFO in order.py: GET: /user/3/order?
[2020-01-12 20:26:44,573] DEBUG in order_connector.py: Response from order: {'message': 'Service CARD is not available'}, 503
[2020-01-12 20:26:44,574] DEBUG in order.py: Response from servers: {'message': 'Service CARD is not available'}, 503
[2020-01-12 20:26:53,181] INFO in order.py: POST: /user/3/order?
[2020-01-12 20:26:53,217] DEBUG in card_connector.py: Response from order: {'message': 'card with id: 5 attendance updated'}, 200
[2020-01-12 20:26:53,222] DEBUG in order_connector.py: Response from order: {'message': 'Service ORDER is not available'}, 503
[2020-01-12 20:26:53,222] DEBUG in order.py: Response from card: {'message': 'Service ORDER is not available'}, 503
[2020-01-12 20:26:53,249] INFO in order.py: GET: /user/3/order?
[2020-01-12 20:26:53,260] DEBUG in order_connector.py: Response from order: {'message': 'Service CARD is not available'}, 503
[2020-01-12 20:26:53,261] DEBUG in order.py: Response from servers: {'message': 'Service CARD is not available'}, 503
[2020-01-12 20:28:31,292] INFO in card.py: GET: /card?
[2020-01-12 20:28:31,372] DEBUG in card.py: Response from cards: {'cards': [{'id': 3, 'Name': 'UFC 243', 'Attendance': 3}, {'id': 4, 'Name': 'UFC 242', 'Attendance': 1}, {'id': 5, 'Name': 'UFC 241', 'Attendance': 1}, {'id': 6, 'Name': 'UFC 240', 'Attendance': 0}, {'id': 7, 'Name': 'UFC 239', 'Attendance': 0}, {'id': 8, 'Name': 'UFC 238', 'Attendance': 0}, {'id': 9, 'Name': 'UFC 237', 'Attendance': 0}, {'id': 10, 'Name': 'UFC 236', 'Attendance': 0}, {'id': 11, 'Name': 'UFC 235', 'Attendance': 1}, {'id': 12, 'Name': 'UFC 234', 'Attendance': 0}, {'id': 13, 'Name': 'UFC 233', 'Attendance': 0}, {'id': 14, 'Name': 'UFC 232', 'Attendance': 0}, {'id': 15, 'Name': 'UFC 231', 'Attendance': 0}, {'id': 16, 'Name': 'UFC 230', 'Attendance': 0}, {'id': 17, 'Name': 'UFC 229', 'Attendance': 0}, {'id': 18, 'Name': 'UFC 228', 'Attendance': 0}, {'id': 19, 'Name': 'UFC 227', 'Attendance': 0}, {'id': 20, 'Name': 'UFC 226', 'Attendance': 0}, {'id': 21, 'Name': 'UFC 225', 'Attendance': 0}, {'id': 22, 'Name': 'UFC 224', 'Attendance': 0}, {'id': 23, 'Name': 'UFC 223', 'Attendance': 0}, {'id': 24, 'Name': 'UFC 222', 'Attendance': 0}, {'id': 25, 'Name': 'UFC 221', 'Attendance': 0}, {'id': 26, 'Name': 'UFC 220', 'Attendance': 0}, {'id': 27, 'Name': 'UFC 219', 'Attendance': 0}, {'id': 28, 'Name': 'UFC 218', 'Attendance': 0}, {'id': 29, 'Name': 'UFC 217', 'Attendance': 0}, {'id': 30, 'Name': 'UFC 216', 'Attendance': 0}, {'id': 31, 'Name': 'UFC 215', 'Attendance': 0}, {'id': 32, 'Name': 'UFC 214', 'Attendance': 0}, {'id': 33, 'Name': 'UFC 213', 'Attendance': 0}, {'id': 34, 'Name': 'UFC 212', 'Attendance': 1}, {'id': 35, 'Name': 'UFC 211', 'Attendance': 0}, {'id': 36, 'Name': 'UFC 210', 'Attendance': 0}, {'id': 37, 'Name': 'UFC 209', 'Attendance': 0}, {'id': 38, 'Name': 'UFC 208', 'Attendance': 0}, {'id': 39, 'Name': 'UFC 207', 'Attendance': 0}, {'id': 40, 'Name': 'UFC 206', 'Attendance': 0}, {'id': 41, 'Name': 'UFC 205', 'Attendance': 0}, {'id': 42, 'Name': 'UFC 204', 'Attendance': 0}, {'id': 43, 'Name': 'UFC 203', 'Attendance': 0}, {'id': 44, 'Name': 'UFC 202', 'Attendance': 0}, {'id': 45, 'Name': 'UFC 201', 'Attendance': 0}, {'id': 46, 'Name': 'UFC 200', 'Attendance': 0}, {'id': 47, 'Name': 'UFC 199', 'Attendance': 0}, {'id': 48, 'Name': 'UFC 198', 'Attendance': 0}, {'id': 49, 'Name': 'UFC 197', 'Attendance': 0}, {'id': 50, 'Name': 'UFC 196', 'Attendance': 0}, {'id': 51, 'Name': 'UFC 195', 'Attendance': 0}, {'id': 52, 'Name': 'UFC 194', 'Attendance': 0}, {'id': 53, 'Name': 'UFC 193', 'Attendance': 0}, {'id': 54, 'Name': 'UFC 192', 'Attendance': 0}, {'id': 55, 'Name': 'UFC 191', 'Attendance': 0}, {'id': 56, 'Name': 'UFC 190', 'Attendance': 0}, {'id': 57, 'Name': 'UFC 189', 'Attendance': 0}, {'id': 58, 'Name': 'UFC 188', 'Attendance': 0}, {'id': 59, 'Name': 'UFC 187', 'Attendance': 0}, {'id': 60, 'Name': 'UFC 186', 'Attendance': 0}, {'id': 61, 'Name': 'UFC 185', 'Attendance': 0}, {'id': 62, 'Name': 'UFC 184', 'Attendance': 0}, {'id': 63, 'Name': 'UFC 183', 'Attendance': 0}, {'id': 64, 'Name': 'UFC 182', 'Attendance': 0}, {'id': 65, 'Name': 'UFC 181', 'Attendance': 0}, {'id': 66, 'Name': 'UFC 180', 'Attendance': 0}, {'id': 67, 'Name': 'UFC 179', 'Attendance': 0}, {'id': 68, 'Name': 'UFC 178', 'Attendance': 0}, {'id': 69, 'Name': 'UFC 177', 'Attendance': 0}, {'id': 70, 'Name': 'UFC 176', 'Attendance': 0}, {'id': 71, 'Name': 'UFC 175', 'Attendance': 0}, {'id': 72, 'Name': 'UFC 174', 'Attendance': 0}, {'id': 73, 'Name': 'UFC 173', 'Attendance': 0}, {'id': 74, 'Name': 'UFC 172', 'Attendance': 0}, {'id': 75, 'Name': 'UFC 171', 'Attendance': 0}, {'id': 76, 'Name': 'UFC 170', 'Attendance': 0}, {'id': 77, 'Name': 'UFC 169', 'Attendance': 0}, {'id': 78, 'Name': 'UFC 168', 'Attendance': 0}, {'id': 79, 'Name': 'UFC 167', 'Attendance': 0}, {'id': 80, 'Name': 'UFC 166', 'Attendance': 0}, {'id': 81, 'Name': 'UFC 165', 'Attendance': 0}, {'id': 82, 'Name': 'UFC 164', 'Attendance': 0}, {'id': 83, 'Name': 'UFC 163', 'Attendance': 0}, {'id': 84, 'Name': 'UFC 162', 'Attendance': 0}, {'id': 85, 'Name': 'UFC 161', 'Attendance': 0}, {'id': 86, 'Name': 'UFC 160', 'Attendance': 0}, {'id': 87, 'Name': 'UFC 159', 'Attendance': 0}, {'id': 88, 'Name': 'UFC 158', 'Attendance': 0}, {'id': 89, 'Name': 'UFC 157', 'Attendance': 0}, {'id': 90, 'Name': 'UFC 156', 'Attendance': 0}, {'id': 91, 'Name': 'UFC 155', 'Attendance': 0}, {'id': 92, 'Name': 'UFC 154', 'Attendance': 0}, {'id': 93, 'Name': 'UFC 153', 'Attendance': 0}, {'id': 94, 'Name': 'UFC 152', 'Attendance': 0}, {'id': 95, 'Name': 'UFC 151', 'Attendance': 0}, {'id': 96, 'Name': 'UFC 150', 'Attendance': 0}, {'id': 97, 'Name': 'UFC 149', 'Attendance': 0}, {'id': 98, 'Name': 'UFC 148', 'Attendance': 0}, {'id': 99, 'Name': 'UFC 147', 'Attendance': 0}, {'id': 100, 'Name': 'UFC 146', 'Attendance': 0}, {'id': 101, 'Name': 'UFC 145', 'Attendance': 0}, {'id': 102, 'Name': 'UFC 144', 'Attendance': 0}, {'id': 103, 'Name': 'UFC 143', 'Attendance': 0}, {'id': 104, 'Name': 'UFC 142', 'Attendance': 0}, {'id': 105, 'Name': 'UFC 141', 'Attendance': 0}, {'id': 106, 'Name': 'UFC 140', 'Attendance': 0}, {'id': 107, 'Name': 'UFC 139', 'Attendance': 0}, {'id': 108, 'Name': 'UFC 138', 'Attendance': 0}, {'id': 109, 'Name': 'UFC 137', 'Attendance': 0}, {'id': 110, 'Name': 'UFC 136', 'Attendance': 0}, {'id': 111, 'Name': 'UFC 135', 'Attendance': 0}, {'id': 112, 'Name': 'UFC 134', 'Attendance': 0}, {'id': 113, 'Name': 'UFC 133', 'Attendance': 0}, {'id': 114, 'Name': 'UFC 132', 'Attendance': 0}, {'id': 115, 'Name': 'UFC 131', 'Attendance': 0}, {'id': 116, 'Name': 'UFC 130', 'Attendance': 0}, {'id': 117, 'Name': 'UFC 129', 'Attendance': 0}, {'id': 118, 'Name': 'UFC 128', 'Attendance': 0}, {'id': 119, 'Name': 'UFC 127', 'Attendance': 0}, {'id': 120, 'Name': 'UFC 126', 'Attendance': 0}, {'id': 121, 'Name': 'UFC 125', 'Attendance': 0}, {'id': 122, 'Name': 'UFC 124', 'Attendance': 0}, {'id': 123, 'Name': 'UFC 123', 'Attendance': 0}, {'id': 124, 'Name': 'UFC 122', 'Attendance': 0}, {'id': 125, 'Name': 'UFC 121', 'Attendance': 0}, {'id': 126, 'Name': 'UFC 120', 'Attendance': 0}, {'id': 127, 'Name': 'UFC 119', 'Attendance': 0}, {'id': 128, 'Name': 'UFC 118', 'Attendance': 0}, {'id': 129, 'Name': 'UFC 117', 'Attendance': 0}, {'id': 130, 'Name': 'UFC 116', 'Attendance': 0}, {'id': 131, 'Name': 'UFC 115', 'Attendance': 0}, {'id': 132, 'Name': 'UFC 114', 'Attendance': 0}, {'id': 133, 'Name': 'UFC 113', 'Attendance': 0}, {'id': 134, 'Name': 'UFC 112', 'Attendance': 0}, {'id': 135, 'Name': 'UFC 111', 'Attendance': 0}, {'id': 136, 'Name': 'UFC 110', 'Attendance': 0}, {'id': 137, 'Name': 'UFC 109', 'Attendance': 0}, {'id': 138, 'Name': 'UFC 108', 'Attendance': 0}, {'id': 139, 'Name': 'UFC 107', 'Attendance': 0}, {'id': 140, 'Name': 'UFC 106', 'Attendance': 0}, {'id': 141, 'Name': 'UFC 105', 'Attendance': 0}, {'id': 142, 'Name': 'UFC 104', 'Attendance': 0}, {'id': 143, 'Name': 'UFC 103', 'Attendance': 0}, {'id': 144, 'Name': 'UFC 102', 'Attendance': 0}, {'id': 145, 'Name': 'UFC 101', 'Attendance': 0}, {'id': 146, 'Name': 'UFC 100', 'Attendance': 0}, {'id': 147, 'Name': 'UFC 99', 'Attendance': 0}, {'id': 148, 'Name': 'UFC 98', 'Attendance': 0}, {'id': 149, 'Name': 'UFC 97', 'Attendance': 0}, {'id': 150, 'Name': 'UFC 96', 'Attendance': 0}, {'id': 151, 'Name': 'UFC 95', 'Attendance': 0}, {'id': 152, 'Name': 'UFC 94', 'Attendance': 0}, {'id': 153, 'Name': 'UFC 93', 'Attendance': 0}, {'id': 154, 'Name': 'UFC 92', 'Attendance': 0}, {'id': 155, 'Name': 'UFC 91', 'Attendance': 0}, {'id': 156, 'Name': 'UFC 90', 'Attendance': 0}, {'id': 157, 'Name': 'UFC 89', 'Attendance': 0}, {'id': 158, 'Name': 'UFC 88', 'Attendance': 0}, {'id': 159, 'Name': 'UFC 87', 'Attendance': 0}, {'id': 160, 'Name': 'UFC 86', 'Attendance': 0}, {'id': 161, 'Name': 'UFC 85', 'Attendance': 0}, {'id': 162, 'Name': 'UFC 84', 'Attendance': 0}, {'id': 163, 'Name': 'UFC 83', 'Attendance': 0}, {'id': 164, 'Name': 'UFC 82', 'Attendance': 0}, {'id': 165, 'Name': 'UFC 81', 'Attendance': 0}, {'id': 166, 'Name': 'UFC 80', 'Attendance': 0}, {'id': 167, 'Name': 'UFC 79', 'Attendance': 0}, {'id': 168, 'Name': 'UFC 78', 'Attendance': 0}, {'id': 169, 'Name': 'UFC 77', 'Attendance': 0}, {'id': 170, 'Name': 'UFC 76', 'Attendance': 0}, {'id': 171, 'Name': 'UFC 75', 'Attendance': 0}, {'id': 172, 'Name': 'UFC 74', 'Attendance': 0}, {'id': 173, 'Name': 'UFC 73', 'Attendance': 0}, {'id': 174, 'Name': 'UFC 72', 'Attendance': 0}, {'id': 175, 'Name': 'UFC 71', 'Attendance': 0}, {'id': 176, 'Name': 'UFC 70', 'Attendance': 0}, {'id': 177, 'Name': 'UFC 69', 'Attendance': 0}, {'id': 178, 'Name': 'UFC 68', 'Attendance': 0}, {'id': 179, 'Name': 'UFC 67', 'Attendance': 0}, {'id': 180, 'Name': 'UFC 66', 'Attendance': 0}, {'id': 181, 'Name': 'UFC 65', 'Attendance': 0}, {'id': 182, 'Name': 'UFC 64', 'Attendance': 0}, {'id': 183, 'Name': 'UFC 63', 'Attendance': 0}, {'id': 184, 'Name': 'UFC 62', 'Attendance': 0}, {'id': 185, 'Name': 'UFC 61', 'Attendance': 0}, {'id': 186, 'Name': 'UFC 60', 'Attendance': 0}, {'id': 187, 'Name': 'UFC 59', 'Attendance': 0}, {'id': 188, 'Name': 'UFC 58', 'Attendance': 0}, {'id': 189, 'Name': 'UFC 57', 'Attendance': 0}, {'id': 190, 'Name': 'UFC 56', 'Attendance': 0}, {'id': 191, 'Name': 'UFC 55', 'Attendance': 0}, {'id': 192, 'Name': 'UFC 54', 'Attendance': 0}, {'id': 193, 'Name': 'UFC 53', 'Attendance': 0}, {'id': 194, 'Name': 'UFC 52', 'Attendance': 0}, {'id': 195, 'Name': 'UFC 51', 'Attendance': 0}, {'id': 196, 'Name': 'UFC 50', 'Attendance': 0}, {'id': 197, 'Name': 'UFC 49', 'Attendance': 0}, {'id': 198, 'Name': 'UFC 48', 'Attendance': 0}, {'id': 199, 'Name': 'UFC 47', 'Attendance': 0}, {'id': 200, 'Name': 'UFC 46', 'Attendance': 0}, {'id': 201, 'Name': 'UFC 45', 'Attendance': 0}, {'id': 202, 'Name': 'UFC 44', 'Attendance': 0}, {'id': 203, 'Name': 'UFC 43', 'Attendance': 0}, {'id': 204, 'Name': 'UFC 42', 'Attendance': 0}, {'id': 205, 'Name': 'UFC 41', 'Attendance': 0}, {'id': 206, 'Name': 'UFC 40', 'Attendance': 0}, {'id': 207, 'Name': 'UFC 39', 'Attendance': 0}, {'id': 208, 'Name': 'UFC 38', 'Attendance': 0}, {'id': 209, 'Name': 'UFC 37', 'Attendance': 0}, {'id': 210, 'Name': 'UFC 36', 'Attendance': 0}, {'id': 211, 'Name': 'UFC 35', 'Attendance': 0}, {'id': 212, 'Name': 'UFC 34', 'Attendance': 0}, {'id': 213, 'Name': 'UFC 33', 'Attendance': 0}, {'id': 214, 'Name': 'UFC 32', 'Attendance': 0}, {'id': 215, 'Name': 'UFC 31', 'Attendance': 0}, {'id': 216, 'Name': 'UFC 30', 'Attendance': 0}, {'id': 217, 'Name': 'UFC 29', 'Attendance': 0}, {'id': 218, 'Name': 'UFC 28', 'Attendance': 0}, {'id': 219, 'Name': 'UFC 27', 'Attendance': 0}, {'id': 220, 'Name': 'UFC 26', 'Attendance': 0}, {'id': 221, 'Name': 'UFC 25', 'Attendance': 0}, {'id': 222, 'Name': 'UFC 24', 'Attendance': 0}, {'id': 223, 'Name': 'UFC 23', 'Attendance': 0}, {'id': 224, 'Name': 'UFC 22', 'Attendance': 0}, {'id': 225, 'Name': 'UFC 21', 'Attendance': 0}, {'id': 226, 'Name': 'UFC 20', 'Attendance': 0}, {'id': 227, 'Name': 'UFC 19', 'Attendance': 0}, {'id': 228, 'Name': 'UFC 18', 'Attendance': 0}, {'id': 229, 'Name': 'UFC 17', 'Attendance': 0}, {'id': 230, 'Name': 'UFC 16', 'Attendance': 0}, {'id': 231, 'Name': 'UFC 15', 'Attendance': 0}, {'id': 232, 'Name': 'UFC 14', 'Attendance': 0}, {'id': 233, 'Name': 'UFC 13', 'Attendance': 0}, {'id': 234, 'Name': 'UFC 12', 'Attendance': 0}, {'id': 235, 'Name': 'UFC 11', 'Attendance': 0}, {'id': 236, 'Name': 'UFC 10', 'Attendance': 0}, {'id': 237, 'Name': 'UFC 9', 'Attendance': 0}, {'id': 238, 'Name': 'UFC 8', 'Attendance': 0}, {'id': 239, 'Name': 'UFC 7', 'Attendance': 0}, {'id': 240, 'Name': 'UFC 6', 'Attendance': 0}, {'id': 241, 'Name': 'UFC 5', 'Attendance': 0}, {'id': 242, 'Name': 'UFC 4', 'Attendance': 0}, {'id': 243, 'Name': 'UFC 3', 'Attendance': 0}, {'id': 244, 'Name': 'UFC 2', 'Attendance': 0}, {'id': 245, 'Name': 'UFC 1', 'Attendance': 0}]}, 200
[2020-01-12 20:28:39,355] INFO in card_user.py: GET: /card/5/user?
[2020-01-12 20:28:39,364] DEBUG in order_connector.py: Response from order: {'message': 'Service ORDER is not available'}, 503
[2020-01-12 20:30:37,233] INFO in user.py: GET: /user?
[2020-01-12 20:30:37,303] DEBUG in user_connector.py: Response from user connector: {'users': [{'id': 1, 'username': 'Kizilov D.'}, {'id': 2, 'username': 'Michael Bale'}, {'id': 3, 'username': 'Rock'}, {'id': 4, 'username': 'Paper'}, {'id': 5, 'username': 'Scissors'}]}, 200
[2020-01-12 20:30:37,303] DEBUG in user.py: Response from servers: {'users': [{'id': 1, 'username': 'Kizilov D.'}, {'id': 2, 'username': 'Michael Bale'}, {'id': 3, 'username': 'Rock'}, {'id': 4, 'username': 'Paper'}, {'id': 5, 'username': 'Scissors'}]}, 200
[2020-01-12 20:30:40,882] INFO in order.py: GET: /user/4/order?
[2020-01-12 20:30:40,890] DEBUG in order_connector.py: Response from order: {'message': 'Service CARD is not available'}, 503
[2020-01-12 20:30:40,891] DEBUG in order.py: Response from servers: {'message': 'Service CARD is not available'}, 503
[2020-01-12 20:30:49,396] INFO in order.py: POST: /user/4/order?
[2020-01-12 20:30:49,482] DEBUG in card_connector.py: Response from order: {'message': 'card with id: 6 attendance updated'}, 200
[2020-01-12 20:30:49,491] DEBUG in order_connector.py: Response from order: {'message': 'Service ORDER is not available'}, 503
[2020-01-12 20:30:49,518] DEBUG in card_connector.py: Response from order: {'message': 'card with id: 6 attendance updated'}, 200
[2020-01-12 20:30:49,519] DEBUG in order.py: Response from card: {'message': 'Service ORDER is not available'}, 503
[2020-01-12 20:30:49,559] INFO in order.py: GET: /user/4/order?
[2020-01-12 20:30:49,568] DEBUG in order_connector.py: Response from order: {'message': 'Service CARD is not available'}, 503
[2020-01-12 20:30:49,569] DEBUG in order.py: Response from servers: {'message': 'Service CARD is not available'}, 503
[2020-01-12 20:30:59,065] INFO in card.py: GET: /card?
